86

8
AGYUjzSQt
ilKKgdwBqGg OmwdiAH
Uj
k UfEeERmCcwlUKSv
KxROsKY
p
ftmIqqZndD
tJikiym AzEa
1 2 3 4 5 6 7 8
7 6 5 4 3 2 1 8
3 4 5 6 7 8 1 2
5 4 3 2 1 8 7 6
5 6 7 8 1 2 3 4
3 2 1 8 7 6 5 4
7 8 1 2 3 4 5 6
1 8 7 6 5 4 3 2
1 2 3 4 5 6 7 8
7 6 5 4 3 2 1 8
3 4 5 6 7 8 1 2
5 4 3 2 1 8 7 6
5 6 7 8 1 2 3 4
3 2 1 8 7 6 5 4
7 8 1 2 3 4 5 6
1 8 7 6 5 4 3 2
1 2 3 4 5 6 7 8
7 6 5 4 3 2 1 8
3 4 5 6 7 8 1 2
5 4 3 2 1 8 7 6
5 6 7 8 1 2 3 4
3 2 1 8 7 6 5 4
7 8 1 2 3 4 5 6
1 8 7 6 5 4 3 2
1 2 3 4 5 6 7 8
7 6 5 4 3 2 1 8
3 4 5 6 7 8 1 2
5 4 3 2 1 8 7 6
5 6 7 8 1 2 3 4
3 2 1 8 7 6 5 4
7 8 1 2 3 4 5 6
1 8 7 6 5 4 3 2
1 2 3 4 5 6 7 8
7 6 5 4 3 2 1 8
3 4 5 6 7 8 1 2
5 4 3 2 1 8 7 6
5 6 7 8 1 2 3 4
3 2 1 8 7 6 5 4
7 8 1 2 3 4 5 6
1 8 7 6 5 4 3 2

3
zQrpnUUrby
JllSuOxAuaChKc
Py
1 2 3
2 1 3
3 1 2
3 2 1
2 3 1
1 3 2
1 2 3
2 1 3
3 1 2
3 2 1
2 3 1
1 3 2
1 2 3
2 1 3
3 1 2
3 2 1
2 3 1
1 3 2
1 2 3
2 1 3
3 1 2
3 2 1
2 3 1
1 3 2
1 2 3
2 1 3
3 1 2
3 2 1
2 3 1
1 3 2
1 2 3
2 1 3
3 1 2
3 2 1
2 3 1
1 3 2
1 2 3
2 1 3

13
xqOOGD
kHUG
uDJlGFXAxTOENJV
wObehLm
p OZlnrQfJu
xbcnihHpEE
ViAztJesQF
EBsnugDzXy
NDYDlOEVcpknbMaasw
o JJbXf
pnSFzxRtYZzn
oXKyWOJFlFM
sKOoLXBoxfmntMxvuBJ
1 2 3 4 5 6 7 8 9 10 11 12 13
12 11 10 9 8 7 6 5 4 3 2 1 13
3 4 5 6 7 8 9 10 11 12 13 1 2
10 9 8 7 6 5 4 3 2 1 13 12 11
5 6 7 8 9 10 11 12 13 1 2 3 4
8 7 6 5 4 3 2 1 13 12 11 10 9
7 8 9 10 11 12 13 1 2 3 4 5 6
6 5 4 3 2 1 13 12 11 10 9 8 7
9 10 11 12 13 1 2 3 4 5 6 7 8
4 3 2 1 13 12 11 10 9 8 7 6 5
11 12 13 1 2 3 4 5 6 7 8 9 10
2 1 13 12 11 10 9 8 7 6 5 4 3
13 1 2 3 4 5 6 7 8 9 10 11 12
13 12 11 10 9 8 7 6 5 4 3 2 1
2 3 4 5 6 7 8 9 10 11 12 13 1
11 10 9 8 7 6 5 4 3 2 1 13 12
4 5 6 7 8 9 10 11 12 13 1 2 3
9 8 7 6 5 4 3 2 1 13 12 11 10
6 7 8 9 10 11 12 13 1 2 3 4 5
7 6 5 4 3 2 1 13 12 11 10 9 8
8 9 10 11 12 13 1 2 3 4 5 6 7

9
xAWgwOTlgDJadUGr
jahofG vsClHauJXjw
MYjSlIJLblRdxFMJFxz
azd QZCnNcbCdq
GGnHBRZkbX 
pDjYmdeL LANXdTSfW
VsWFNXxhoidlhQQ 
WYatvKZMIcdwCNYQqsy
GIOVodyo OMuOaM
1 2 3 4 5 6 7 8 9
8 7 6 5 4 3 2 1 9
3 4 5 6 7 8 9 1 2
6 5 4 3 2 1 9 8 7
5 6 7 8 9 1 2 3 4
4 3 2 1 9 8 7 6 5
7 8 9 1 2 3 4 5 6
2 1 9 8 7 6 5 4 3
9 1 2 3 4 5 6 7 8
9 8 7 6 5 4 3 2 1
2 3 4 5 6 7 8 9 1
7 6 5 4 3 2 1 9 8
4 5 6 7 8 9 1 2 3
5 4 3 2 1 9 8 7 6
6 7 8 9 1 2 3 4 5
3 2 1 9 8 7 6 5 4
8 9 1 2 3 4 5 6 7
1 9 8 7 6 5 4 3 2
1 2 3 4 5 6 7 8 9
8 7 6 5 4 3 2 1 9
3 4 5 6 7 8 9 1 2
6 5 4 3 2 1 9 8 7
5 6 7 8 9 1 2 3 4
4 3 2 1 9 8 7 6 5
7 8 9 1 2 3 4 5 6
2 1 9 8 7 6 5 4 3
9 1 2 3 4 5 6 7 8
9 8 7 6 5 4 3 2 1
2 3 4 5 6 7 8 9 1
7 6 5 4 3 2 1 9 8
4 5 6 7 8 9 1 2 3
5 4 3 2 1 9 8 7 6

4
jlxPn
oldMU
QknH
Jp
1 2 3 4
3 2 1 4
3 4 1 2
1 4 3 2
1 2 3 4
3 2 1 4
3 4 1 2
1 4 3 2
1 2 3 4
3 2 1 4
3 4 1 2
1 4 3 2
1 2 3 4
3 2 1 4
3 4 1 2
1 4 3 2
1 2 3 4
3 2 1 4
3 4 1 2
1 4 3 2
1 2 3 4
3 2 1 4
3 4 1 2
1 4 3 2
1 2 3 4
3 2 1 4
3 4 1 2
1 4 3 2
1 2 3 4
3 2 1 4

10
jlEZJHNFnFdf
zrfwHVFFpUNBD
YYUzQ vMLkBxJjYodwrA
iKVR
ialye
jgjvbW QK
G
ICmQjHohaSiDhkpvawf
mGhL tywdnVFOEw
ujhXVncTpWlIbvwzcA
1 2 3 4 5 6 7 8 9 10
9 8 7 6 5 4 3 2 1 10
3 4 5 6 7 8 9 10 1 2
7 6 5 4 3 2 1 10 9 8
5 6 7 8 9 10 1 2 3 4
5 4 3 2 1 10 9 8 7 6
7 8 9 10 1 2 3 4 5 6
3 2 1 10 9 8 7 6 5 4
9 10 1 2 3 4 5 6 7 8
1 10 9 8 7 6 5 4 3 2
1 2 3 4 5 6 7 8 9 10
9 8 7 6 5 4 3 2 1 10
3 4 5 6 7 8 9 10 1 2
7 6 5 4 3 2 1 10 9 8
5 6 7 8 9 10 1 2 3 4
5 4 3 2 1 10 9 8 7 6
7 8 9 10 1 2 3 4 5 6
3 2 1 10 9 8 7 6 5 4
9 10 1 2 3 4 5 6 7 8
1 10 9 8 7 6 5 4 3 2
1 2 3 4 5 6 7 8 9 10
9 8 7 6 5 4 3 2 1 10
3 4 5 6 7 8 9 10 1 2
7 6 5 4 3 2 1 10 9 8

14
OsxCNt
VbxEBgsQb
zXxDvklZUviLq
e
gdHDl
rGtGPMmMfj
taZhaNLjTCbdWHXd
cusBaITWIEnTZ
StOTIIzTNchmivR
jDGsTOPR
rCCxgdpmWEHneV
vqTxgoI
GMwDMbY
NeZvjyKpDSfxtnxrrD
1 2 3 4 5 6 7 8 9 10 11 12 13 14
13 12 11 10 9 8 7 6 5 4 3 2 1 14
3 4 5 6 7 8 9 10 11 12 13 14 1 2
11 10 9 8 7 6 5 4 3 2 1 14 13 12
5 6 7 8 9 10 11 12 13 14 1 2 3 4
9 8 7 6 5 4 3 2 1 14 13 12 11 10
7 8 9 10 11 12 13 14 1 2 3 4 5 6
7 6 5 4 3 2 1 14 13 12 11 10 9 8
9 10 11 12 13 14 1 2 3 4 5 6 7 8
5 4 3 2 1 14 13 12 11 10 9 8 7 6
11 12 13 14 1 2 3 4 5 6 7 8 9 10
3 2 1 14 13 12 11 10 9 8 7 6 5 4
13 14 1 2 3 4 5 6 7 8 9 10 11 12
1 14 13 12 11 10 9 8 7 6 5 4 3 2
1 2 3 4 5 6 7 8 9 10 11 12 13 14
13 12 11 10 9 8 7 6 5 4 3 2 1 14
3 4 5 6 7 8 9 10 11 12 13 14 1 2
11 10 9 8 7 6 5 4 3 2 1 14 13 12
5 6 7 8 9 10 11 12 13 14 1 2 3 4
9 8 7 6 5 4 3 2 1 14 13 12 11 10
7 8 9 10 11 12 13 14 1 2 3 4 5 6
7 6 5 4 3 2 1 14 13 12 11 10 9 8
9 10 11 12 13 14 1 2 3 4 5 6 7 8
5 4 3 2 1 14 13 12 11 10 9 8 7 6
11 12 13 14 1 2 3 4 5 6 7 8 9 10
3 2 1 14 13 12 11 10 9 8 7 6 5 4
13 14 1 2 3 4 5 6 7 8 9 10 11 12
1 14 13 12 11 10 9 8 7 6 5 4 3 2
1 2 3 4 5 6 7 8 9 10 11 12 13 14
13 12 11 10 9 8 7 6 5 4 3 2 1 14
3 4 5 6 7 8 9 10 11 12 13 14 1 2
11 10 9 8 7 6 5 4 3 2 1 14 13 12
5 6 7 8 9 10 11 12 13 14 1 2 3 4
9 8 7 6 5 4 3 2 1 14 13 12 11 10

13
zPZmMXZFWbzN
yhsmofUX
RQwO
dIFoJXqUTRhGSAtcj
OvbEKozOSwRxaJynquDD
QVCywRLZoWdYWErv
zWSeqF LQuhFEpmTUU
BVvIHTtpcQmjtr
OmGX
yWrCGgghu
LaQoIgavzqWDxYjVr
vnmHwaIJTchLuXKMKwl
fcjFlLOxEkMQgmk
1 2 3 4 5 6 7 8 9 10 11 12 13
12 11 10 9 8 7 6 5 4 3 2 1 13
3 4 5 6 7 8 9 10 11 12 13 1 2
10 9 8 7 6 5 4 3 2 1 13 12 11
5 6 7 8 9 10 11 12 13 1 2 3 4
8 7 6 5 4 3 2 1 13 12 11 10 9
7 8 9 10 11 12 13 1 2 3 4 5 6
6 5 4 3 2 1 13 12 11 10 9 8 7
9 10 11 12 13 1 2 3 4 5 6 7 8
4 3 2 1 13 12 11 10 9 8 7 6 5
11 12 13 1 2 3 4 5 6 7 8 9 10
2 1 13 12 11 10 9 8 7 6 5 4 3
13 1 2 3 4 5 6 7 8 9 10 11 12
13 12 11 10 9 8 7 6 5 4 3 2 1
2 3 4 5 6 7 8 9 10 11 12 13 1
11 10 9 8 7 6 5 4 3 2 1 13 12
4 5 6 7 8 9 10 11 12 13 1 2 3
9 8 7 6 5 4 3 2 1 13 12 11 10
6 7 8 9 10 11 12 13 1 2 3 4 5
7 6 5 4 3 2 1 13 12 11 10 9 8
8 9 10 11 12 13 1 2 3 4 5 6 7

8
DMGJBBBude
nFv
buStWC
qVcdvyjpvIMYjjm oqse
DgjWxp
TjNVAw
FNbvYOMPz
UT
1 2 3 4 5 6 7 8
7 6 5 4 3 2 1 8
3 4 5 6 7 8 1 2
5 4 3 2 1 8 7 6
5 6 7 8 1 2 3 4
3 2 1 8 7 6 5 4
7 8 1 2 3 4 5 6
1 8 7 6 5 4 3 2
1 2 3 4 5 6 7 8
7 6 5 4 3 2 1 8
3 4 5 6 7 8 1 2
5 4 3 2 1 8 7 6
5 6 7 8 1 2 3 4
3 2 1 8 7 6 5 4
7 8 1 2 3 4 5 6
1 8 7 6 5 4 3 2
1 2 3 4 5 6 7 8
7 6 5 4 3 2 1 8
3 4 5 6 7 8 1 2
5 4 3 2 1 8 7 6
5 6 7 8 1 2 3 4
3 2 1 8 7 6 5 4
7 8 1 2 3 4 5 6
1 8 7 6 5 4 3 2
1 2 3 4 5 6 7 8
7 6 5 4 3 2 1 8
3 4 5 6 7 8 1 2
5 4 3 2 1 8 7 6
5 6 7 8 1 2 3 4
3 2 1 8 7 6 5 4
7 8 1 2 3 4 5 6
1 8 7 6 5 4 3 2
1 2 3 4 5 6 7 8
7 6 5 4 3 2 1 8
3 4 5 6 7 8 1 2
5 4 3 2 1 8 7 6
5 6 7 8 1 2 3 4
3 2 1 8 7 6 5 4
7 8 1 2 3 4 5 6
1 8 7 6 5 4 3 2

7
wwn vLMF
JyRvvRg
GmrnNkRIzrjfHMQtD
 GhmclqMnyWiFk
qVafGwBCpzszfjCniO
vtv
zEObifTXXpVYpN
1 2 3 4 5 6 7
6 5 4 3 2 1 7
3 4 5 6 7 1 2
4 3 2 1 7 6 5
5 6 7 1 2 3 4
2 1 7 6 5 4 3
7 1 2 3 4 5 6
7 6 5 4 3 2 1
2 3 4 5 6 7 1
5 4 3 2 1 7 6
4 5 6 7 1 2 3
3 2 1 7 6 5 4
6 7 1 2 3 4 5
1 7 6 5 4 3 2
1 2 3 4 5 6 7
6 5 4 3 2 1 7
3 4 5 6 7 1 2
4 3 2 1 7 6 5
5 6 7 1 2 3 4
2 1 7 6 5 4 3
7 1 2 3 4 5 6
7 6 5 4 3 2 1
2 3 4 5 6 7 1
5 4 3 2 1 7 6
4 5 6 7 1 2 3
3 2 1 7 6 5 4
6 7 1 2 3 4 5

13
zTBsTgNVcsN
 NzjR
gwagBndHSdcWDleF
F
fm
KMjSWXSyQ P
zPeLWlKnT qTus
ZXcfg zTpJbvBYcSM
EIw JJXmGFlc
RIfzcCJKWLgjInBBXdD
RhxfxWykgiUPhYsvx
SiHgudZtx
OTlosBNUAqUAahbT
1 2 3 4 5 6 7 8 9 10 11 12 13
12 11 10 9 8 7 6 5 4 3 2 1 13
3 4 5 6 7 8 9 10 11 12 13 1 2
10 9 8 7 6 5 4 3 2 1 13 12 11
5 6 7 8 9 10 11 12 13 1 2 3 4
8 7 6 5 4 3 2 1 13 12 11 10 9
7 8 9 10 11 12 13 1 2 3 4 5 6
6 5 4 3 2 1 13 12 11 10 9 8 7
9 10 11 12 13 1 2 3 4 5 6 7 8
4 3 2 1 13 12 11 10 9 8 7 6 5
11 12 13 1 2 3 4 5 6 7 8 9 10
2 1 13 12 11 10 9 8 7 6 5 4 3
13 1 2 3 4 5 6 7 8 9 10 11 12
13 12 11 10 9 8 7 6 5 4 3 2 1
2 3 4 5 6 7 8 9 10 11 12 13 1
11 10 9 8 7 6 5 4 3 2 1 13 12
4 5 6 7 8 9 10 11 12 13 1 2 3
9 8 7 6 5 4 3 2 1 13 12 11 10
6 7 8 9 10 11 12 13 1 2 3 4 5
7 6 5 4 3 2 1 13 12 11 10 9 8
8 9 10 11 12 13 1 2 3 4 5 6 7

16
WrVToJAo
LPaHrnhtxScioVZyw
BPVjYWOCPzlEoZk
HU
lNVlQeHRjbNzrQEA
YePylxx
DeZddXWrf
UpwnBauaFPftJ
fXmiefCP
GEAODvqDdJBFDC
BOIB
ZCDLUnLqmXoMEsy
oAvGExWH
tZiTTTybaszaq
PSXUXdtvXrjtBExEYk 
bsbSzVlALEwjfqbBam
1 2 3 4 5 6 7 8 9 10 11 12 13 14 15 16
15 14 13 12 11 10 9 8 7 6 5 4 3 2 1 16
3 4 5 6 7 8 9 10 11 12 13 14 15 16 1 2
13 12 11 10 9 8 7 6 5 4 3 2 1 16 15 14
5 6 7 8 9 10 11 12 13 14 15 16 1 2 3 4
11 10 9 8 7 6 5 4 3 2 1 16 15 14 13 12
7 8 9 10 11 12 13 14 15 16 1 2 3 4 5 6
9 8 7 6 5 4 3 2 1 16 15 14 13 12 11 10
9 10 11 12 13 14 15 16 1 2 3 4 5 6 7 8
7 6 5 4 3 2 1 16 15 14 13 12 11 10 9 8
11 12 13 14 15 16 1 2 3 4 5 6 7 8 9 10
5 4 3 2 1 16 15 14 13 12 11 10 9 8 7 6
13 14 15 16 1 2 3 4 5 6 7 8 9 10 11 12
3 2 1 16 15 14 13 12 11 10 9 8 7 6 5 4
15 16 1 2 3 4 5 6 7 8 9 10 11 12 13 14
1 16 15 14 13 12 11 10 9 8 7 6 5 4 3 2
1 2 3 4 5 6 7 8 9 10 11 12 13 14 15 16
15 14 13 12 11 10 9 8 7 6 5 4 3 2 1 16
3 4 5 6 7 8 9 10 11 12 13 14 15 16 1 2
13 12 11 10 9 8 7 6 5 4 3 2 1 16 15 14
5 6 7 8 9 10 11 12 13 14 15 16 1 2 3 4
11 10 9 8 7 6 5 4 3 2 1 16 15 14 13 12
7 8 9 10 11 12 13 14 15 16 1 2 3 4 5 6
9 8 7 6 5 4 3 2 1 16 15 14 13 12 11 10
9 10 11 12 13 14 15 16 1 2 3 4 5 6 7 8
7 6 5 4 3 2 1 16 15 14 13 12 11 10 9 8
11 12 13 14 15 16 1 2 3 4 5 6 7 8 9 10
5 4 3 2 1 16 15 14 13 12 11 10 9 8 7 6
13 14 15 16 1 2 3 4 5 6 7 8 9 10 11 12
3 2 1 16 15 14 13 12 11 10 9 8 7 6 5 4
15 16 1 2 3 4 5 6 7 8 9 10 11 12 13 14
1 16 15 14 13 12 11 10 9 8 7 6 5 4 3 2
1 2 3 4 5 6 7 8 9 10 11 12 13 14 15 16
15 14 13 12 11 10 9 8 7 6 5 4 3 2 1 16
3 4 5 6 7 8 9 10 11 12 13 14 15 16 1 2
13 12 11 10 9 8 7 6 5 4 3 2 1 16 15 14
5 6 7 8 9 10 11 12 13 14 15 16 1 2 3 4
11 10 9 8 7 6 5 4 3 2 1 16 15 14 13 12
7 8 9 10 11 12 13 14 15 16 1 2 3 4 5 6

10
mFN
M
HKjPthEXZTHm
qAjzPqxgpSEeIaoZpbf
j
AfjMpwXwIMQRsQUtR
FaUj
ChSuozyv
JIrILHuojyiTqN
EFwLZ
1 2 3 4 5 6 7 8 9 10
9 8 7 6 5 4 3 2 1 10
3 4 5 6 7 8 9 10 1 2
7 6 5 4 3 2 1 10 9 8
5 6 7 8 9 10 1 2 3 4
5 4 3 2 1 10 9 8 7 6
7 8 9 10 1 2 3 4 5 6
3 2 1 10 9 8 7 6 5 4
9 10 1 2 3 4 5 6 7 8
1 10 9 8 7 6 5 4 3 2
1 2 3 4 5 6 7 8 9 10
9 8 7 6 5 4 3 2 1 10
3 4 5 6 7 8 9 10 1 2
7 6 5 4 3 2 1 10 9 8
5 6 7 8 9 10 1 2 3 4
5 4 3 2 1 10 9 8 7 6
7 8 9 10 1 2 3 4 5 6
3 2 1 10 9 8 7 6 5 4
9 10 1 2 3 4 5 6 7 8
1 10 9 8 7 6 5 4 3 2
1 2 3 4 5 6 7 8 9 10
9 8 7 6 5 4 3 2 1 10
3 4 5 6 7 8 9 10 1 2
7 6 5 4 3 2 1 10 9 8

8
zxiNtUaLQ
aduG
xJgsYeUZBwbntOej
ZTNhjmjkSy
EmTuygbhDqYvGAYbL
HiNyYBU
ZrhogMm
gpFNAdfBQfcDfeAYrDe
1 2 3 4 5 6 7 8
7 6 5 4 3 2 1 8
3 4 5 6 7 8 1 2
5 4 3 2 1 8 7 6
5 6 7 8 1 2 3 4
3 2 1 8 7 6 5 4
7 8 1 2 3 4 5 6
1 8 7 6 5 4 3 2
1 2 3 4 5 6 7 8
7 6 5 4 3 2 1 8
3 4 5 6 7 8 1 2
5 4 3 2 1 8 7 6
5 6 7 8 1 2 3 4
3 2 1 8 7 6 5 4
7 8 1 2 3 4 5 6
1 8 7 6 5 4 3 2
1 2 3 4 5 6 7 8
7 6 5 4 3 2 1 8
3 4 5 6 7 8 1 2
5 4 3 2 1 8 7 6
5 6 7 8 1 2 3 4
3 2 1 8 7 6 5 4
7 8 1 2 3 4 5 6
1 8 7 6 5 4 3 2
1 2 3 4 5 6 7 8
7 6 5 4 3 2 1 8
3 4 5 6 7 8 1 2
5 4 3 2 1 8 7 6
5 6 7 8 1 2 3 4
3 2 1 8 7 6 5 4
7 8 1 2 3 4 5 6
1 8 7 6 5 4 3 2
1 2 3 4 5 6 7 8
7 6 5 4 3 2 1 8
3 4 5 6 7 8 1 2
5 4 3 2 1 8 7 6
5 6 7 8 1 2 3 4
3 2 1 8 7 6 5 4
7 8 1 2 3 4 5 6
1 8 7 6 5 4 3 2

8
PgNniOGAXrPeuLYlQcJ 
eBVqL
HpUPguemfaxEs
IaPmPIH
IvNYricGXmZRF
jTuSkiKyh PPfK
jGYwsb
XkULwvSqrAv
1 2 3 4 5 6 7 8
7 6 5 4 3 2 1 8
3 4 5 6 7 8 1 2
5 4 3 2 1 8 7 6
5 6 7 8 1 2 3 4
3 2 1 8 7 6 5 4
7 8 1 2 3 4 5 6
1 8 7 6 5 4 3 2
1 2 3 4 5 6 7 8
7 6 5 4 3 2 1 8
3 4 5 6 7 8 1 2
5 4 3 2 1 8 7 6
5 6 7 8 1 2 3 4
3 2 1 8 7 6 5 4
7 8 1 2 3 4 5 6
1 8 7 6 5 4 3 2
1 2 3 4 5 6 7 8
7 6 5 4 3 2 1 8
3 4 5 6 7 8 1 2
5 4 3 2 1 8 7 6
5 6 7 8 1 2 3 4
3 2 1 8 7 6 5 4
7 8 1 2 3 4 5 6
1 8 7 6 5 4 3 2
1 2 3 4 5 6 7 8
7 6 5 4 3 2 1 8
3 4 5 6 7 8 1 2
5 4 3 2 1 8 7 6
5 6 7 8 1 2 3 4
3 2 1 8 7 6 5 4
7 8 1 2 3 4 5 6
1 8 7 6 5 4 3 2
1 2 3 4 5 6 7 8
7 6 5 4 3 2 1 8
3 4 5 6 7 8 1 2
5 4 3 2 1 8 7 6
5 6 7 8 1 2 3 4
3 2 1 8 7 6 5 4
7 8 1 2 3 4 5 6
1 8 7 6 5 4 3 2

3
ptlpDsjmcVyxNBiU
A
ZqWHxcCGRGNZM
1 2 3
2 1 3
3 1 2
3 2 1
2 3 1
1 3 2
1 2 3
2 1 3
3 1 2
3 2 1
2 3 1
1 3 2
1 2 3
2 1 3
3 1 2
3 2 1
2 3 1
1 3 2
1 2 3
2 1 3
3 1 2
3 2 1
2 3 1
1 3 2
1 2 3
2 1 3
3 1 2
3 2 1
2 3 1
1 3 2
1 2 3
2 1 3
3 1 2
3 2 1
2 3 1
1 3 2
1 2 3
2 1 3

8
vQxRLMiXYlDDGeTMjzSI
Ws
mUtql
pfrOnSmjVhXbyMDwUsOn
nHz pLpKWaZb
SfQpWIyF
mdZpFMb
HTpAlMMufPzSmnlKH
1 2 3 4 5 6 7 8
7 6 5 4 3 2 1 8
3 4 5 6 7 8 1 2
5 4 3 2 1 8 7 6
5 6 7 8 1 2 3 4
3 2 1 8 7 6 5 4
7 8 1 2 3 4 5 6
1 8 7 6 5 4 3 2
1 2 3 4 5 6 7 8
7 6 5 4 3 2 1 8
3 4 5 6 7 8 1 2
5 4 3 2 1 8 7 6
5 6 7 8 1 2 3 4
3 2 1 8 7 6 5 4
7 8 1 2 3 4 5 6
1 8 7 6 5 4 3 2
1 2 3 4 5 6 7 8
7 6 5 4 3 2 1 8
3 4 5 6 7 8 1 2
5 4 3 2 1 8 7 6
5 6 7 8 1 2 3 4
3 2 1 8 7 6 5 4
7 8 1 2 3 4 5 6
1 8 7 6 5 4 3 2
1 2 3 4 5 6 7 8
7 6 5 4 3 2 1 8
3 4 5 6 7 8 1 2
5 4 3 2 1 8 7 6
5 6 7 8 1 2 3 4
3 2 1 8 7 6 5 4
7 8 1 2 3 4 5 6
1 8 7 6 5 4 3 2
1 2 3 4 5 6 7 8
7 6 5 4 3 2 1 8
3 4 5 6 7 8 1 2
5 4 3 2 1 8 7 6
5 6 7 8 1 2 3 4
3 2 1 8 7 6 5 4
7 8 1 2 3 4 5 6
1 8 7 6 5 4 3 2

4
ZkKrMGPIfnJ
zcgHoxFKel
uzFhVdFRjKgF
NBBzwkCtcSFgdJckIJ
1 2 3 4
3 2 1 4
3 4 1 2
1 4 3 2
1 2 3 4
3 2 1 4
3 4 1 2
1 4 3 2
1 2 3 4
3 2 1 4
3 4 1 2
1 4 3 2
1 2 3 4
3 2 1 4
3 4 1 2
1 4 3 2
1 2 3 4
3 2 1 4
3 4 1 2
1 4 3 2
1 2 3 4
3 2 1 4
3 4 1 2
1 4 3 2
1 2 3 4
3 2 1 4
3 4 1 2
1 4 3 2
1 2 3 4
3 2 1 4

3
FAGS
j kSiWiuROd
 fTORCjZUWEL
1 2 3
2 1 3
3 1 2
3 2 1
2 3 1
1 3 2
1 2 3
2 1 3
3 1 2
3 2 1
2 3 1
1 3 2
1 2 3
2 1 3
3 1 2
3 2 1
2 3 1
1 3 2
1 2 3
2 1 3
3 1 2
3 2 1
2 3 1
1 3 2
1 2 3
2 1 3
3 1 2
3 2 1
2 3 1
1 3 2
1 2 3
2 1 3
3 1 2
3 2 1
2 3 1
1 3 2
1 2 3
2 1 3

13
lgoePSetHJmfIeTBmIlj
KbosVizZgn
MFbWsZQJuoAln
 XsXtcCswCr
OnBjrTanXamaM Lj
NfUAdelqxyRevtFI
iclTvde
lOF
cpLFr
VNitnjHFookM
xpXxXIly
VqgB zpeqmRGRrlH
JJhPD
1 2 3 4 5 6 7 8 9 10 11 12 13
12 11 10 9 8 7 6 5 4 3 2 1 13
3 4 5 6 7 8 9 10 11 12 13 1 2
10 9 8 7 6 5 4 3 2 1 13 12 11
5 6 7 8 9 10 11 12 13 1 2 3 4
8 7 6 5 4 3 2 1 13 12 11 10 9
7 8 9 10 11 12 13 1 2 3 4 5 6
6 5 4 3 2 1 13 12 11 10 9 8 7
9 10 11 12 13 1 2 3 4 5 6 7 8
4 3 2 1 13 12 11 10 9 8 7 6 5
11 12 13 1 2 3 4 5 6 7 8 9 10
2 1 13 12 11 10 9 8 7 6 5 4 3
13 1 2 3 4 5 6 7 8 9 10 11 12
13 12 11 10 9 8 7 6 5 4 3 2 1
2 3 4 5 6 7 8 9 10 11 12 13 1
11 10 9 8 7 6 5 4 3 2 1 13 12
4 5 6 7 8 9 10 11 12 13 1 2 3
9 8 7 6 5 4 3 2 1 13 12 11 10
6 7 8 9 10 11 12 13 1 2 3 4 5
7 6 5 4 3 2 1 13 12 11 10 9 8
8 9 10 11 12 13 1 2 3 4 5 6 7

15
VzRGOrbJIfyOHUIfsukp
J PipCW
TJQtPZV
XNcpUhFqFlozFn
JSntTjHga
sHvjKxMhfBakngZSetZ
RcrpSQjJsImVzv
E
uUVvbCXZ
bVHPRNODOk
WILFMkJM
VRudjOKEbvV
ynzFXTMSSgbQ Zf LE
WPxgpdAGHGGpkaQ S
BboUBoNStDJfHAygz
1 2 3 4 5 6 7 8 9 10 11 12 13 14 15
14 13 12 11 10 9 8 7 6 5 4 3 2 1 15
3 4 5 6 7 8 9 10 11 12 13 14 15 1 2
12 11 10 9 8 7 6 5 4 3 2 1 15 14 13
5 6 7 8 9 10 11 12 13 14 15 1 2 3 4
10 9 8 7 6 5 4 3 2 1 15 14 13 12 11
7 8 9 10 11 12 13 14 15 1 2 3 4 5 6
8 7 6 5 4 3 2 1 15 14 13 12 11 10 9
9 10 11 12 13 14 15 1 2 3 4 5 6 7 8
6 5 4 3 2 1 15 14 13 12 11 10 9 8 7
11 12 13 14 15 1 2 3 4 5 6 7 8 9 10
4 3 2 1 15 14 13 12 11 10 9 8 7 6 5
13 14 15 1 2 3 4 5 6 7 8 9 10 11 12
2 1 15 14 13 12 11 10 9 8 7 6 5 4 3
15 1 2 3 4 5 6 7 8 9 10 11 12 13 14
15 14 13 12 11 10 9 8 7 6 5 4 3 2 1
2 3 4 5 6 7 8 9 10 11 12 13 14 15 1
13 12 11 10 9 8 7 6 5 4 3 2 1 15 14
4 5 6 7 8 9 10 11 12 13 14 15 1 2 3
11 10 9 8 7 6 5 4 3 2 1 15 14 13 12
6 7 8 9 10 11 12 13 14 15 1 2 3 4 5
9 8 7 6 5 4 3 2 1 15 14 13 12 11 10
8 9 10 11 12 13 14 15 1 2 3 4 5 6 7
7 6 5 4 3 2 1 15 14 13 12 11 10 9 8
10 11 12 13 14 15 1 2 3 4 5 6 7 8 9
5 4 3 2 1 15 14 13 12 11 10 9 8 7 6

9
SLIvTLIVkk
HTBMrIer kwQUGX
ogW
zjlMIYQaKKv
pGmCBvsTfkMP
qxdPalJvxdSQEgGUeyM
KHCxMopO PD
lQYhpGCq HOor
SavHQLdiYIEZXAy
1 2 3 4 5 6 7 8 9
8 7 6 5 4 3 2 1 9
3 4 5 6 7 8 9 1 2
6 5 4 3 2 1 9 8 7
5 6 7 8 9 1 2 3 4
4 3 2 1 9 8 7 6 5
7 8 9 1 2 3 4 5 6
2 1 9 8 7 6 5 4 3
9 1 2 3 4 5 6 7 8
9 8 7 6 5 4 3 2 1
2 3 4 5 6 7 8 9 1
7 6 5 4 3 2 1 9 8
4 5 6 7 8 9 1 2 3
5 4 3 2 1 9 8 7 6
6 7 8 9 1 2 3 4 5
3 2 1 9 8 7 6 5 4
8 9 1 2 3 4 5 6 7
1 9 8 7 6 5 4 3 2
1 2 3 4 5 6 7 8 9
8 7 6 5 4 3 2 1 9
3 4 5 6 7 8 9 1 2
6 5 4 3 2 1 9 8 7
5 6 7 8 9 1 2 3 4
4 3 2 1 9 8 7 6 5
7 8 9 1 2 3 4 5 6
2 1 9 8 7 6 5 4 3
9 1 2 3 4 5 6 7 8
9 8 7 6 5 4 3 2 1
2 3 4 5 6 7 8 9 1
7 6 5 4 3 2 1 9 8
4 5 6 7 8 9 1 2 3
5 4 3 2 1 9 8 7 6

12
CRLBgcJkPFda oheD
U
umlHueQqETP
kQqHXfm
MkffDwRC
uo
U
nCAlHkU
wSKFrbILJdPGjPhQLXcW
LNlOhdTPwF
VISGLmwuWwjPkHIq
kXIVZHazIZKUlsdoDaBD
1 2 3 4 5 6 7 8 9 10 11 12
11 10 9 8 7 6 5 4 3 2 1 12
3 4 5 6 7 8 9 10 11 12 1 2
9 8 7 6 5 4 3 2 1 12 11 10
5 6 7 8 9 10 11 12 1 2 3 4
7 6 5 4 3 2 1 12 11 10 9 8
7 8 9 10 11 12 1 2 3 4 5 6
5 4 3 2 1 12 11 10 9 8 7 6
9 10 11 12 1 2 3 4 5 6 7 8
3 2 1 12 11 10 9 8 7 6 5 4
11 12 1 2 3 4 5 6 7 8 9 10
1 12 11 10 9 8 7 6 5 4 3 2
1 2 3 4 5 6 7 8 9 10 11 12
11 10 9 8 7 6 5 4 3 2 1 12
3 4 5 6 7 8 9 10 11 12 1 2
9 8 7 6 5 4 3 2 1 12 11 10
5 6 7 8 9 10 11 12 1 2 3 4
7 6 5 4 3 2 1 12 11 10 9 8
7 8 9 10 11 12 1 2 3 4 5 6
5 4 3 2 1 12 11 10 9 8 7 6
9 10 11 12 1 2 3 4 5 6 7 8
3 2 1 12 11 10 9 8 7 6 5 4
11 12 1 2 3 4 5 6 7 8 9 10
1 12 11 10 9 8 7 6 5 4 3 2
1 2 3 4 5 6 7 8 9 10 11 12
11 10 9 8 7 6 5 4 3 2 1 12
3 4 5 6 7 8 9 10 11 12 1 2
9 8 7 6 5 4 3 2 1 12 11 10
5 6 7 8 9 10 11 12 1 2 3 4

5
JntW
kWZoSqvEL
v
PRAwiIYDQsp
PfSXoL
1 2 3 4 5
4 3 2 1 5
3 4 5 1 2
2 1 5 4 3
5 1 2 3 4
5 4 3 2 1
2 3 4 5 1
3 2 1 5 4
4 5 1 2 3
1 5 4 3 2
1 2 3 4 5
4 3 2 1 5
3 4 5 1 2
2 1 5 4 3
5 1 2 3 4
5 4 3 2 1
2 3 4 5 1
3 2 1 5 4
4 5 1 2 3
1 5 4 3 2
1 2 3 4 5
4 3 2 1 5

16
QqcS PgkcBDtUMKhnACA
TDMKxfxQUlXHWOaKDY
FWLxVLUPXEA
SXbacVyxCKQsT eYB
NwyuwQOHHKd
RxCekLnihZa
LVvXOTPEEqaBdTiEQ
gGhhIvUD
oUO eeeOkorxCSGY HCM
mIL
huWWpXPC
nyGcnhvtsuoUpdYJ
a
wAtjwb
UYODWLaNwg
bfjQdgtriEMhI
1 2 3 4 5 6 7 8 9 10 11 12 13 14 15 16
15 14 13 12 11 10 9 8 7 6 5 4 3 2 1 16
3 4 5 6 7 8 9 10 11 12 13 14 15 16 1 2
13 12 11 10 9 8 7 6 5 4 3 2 1 16 15 14
5 6 7 8 9 10 11 12 13 14 15 16 1 2 3 4
11 10 9 8 7 6 5 4 3 2 1 16 15 14 13 12
7 8 9 10 11 12 13 14 15 16 1 2 3 4 5 6
9 8 7 6 5 4 3 2 1 16 15 14 13 12 11 10
9 10 11 12 13 14 15 16 1 2 3 4 5 6 7 8
7 6 5 4 3 2 1 16 15 14 13 12 11 10 9 8
11 12 13 14 15 16 1 2 3 4 5 6 7 8 9 10
5 4 3 2 1 16 15 14 13 12 11 10 9 8 7 6
13 14 15 16 1 2 3 4 5 6 7 8 9 10 11 12
3 2 1 16 15 14 13 12 11 10 9 8 7 6 5 4
15 16 1 2 3 4 5 6 7 8 9 10 11 12 13 14
1 16 15 14 13 12 11 10 9 8 7 6 5 4 3 2
1 2 3 4 5 6 7 8 9 10 11 12 13 14 15 16
15 14 13 12 11 10 9 8 7 6 5 4 3 2 1 16
3 4 5 6 7 8 9 10 11 12 13 14 15 16 1 2
13 12 11 10 9 8 7 6 5 4 3 2 1 16 15 14
5 6 7 8 9 10 11 12 13 14 15 16 1 2 3 4
11 10 9 8 7 6 5 4 3 2 1 16 15 14 13 12
7 8 9 10 11 12 13 14 15 16 1 2 3 4 5 6
9 8 7 6 5 4 3 2 1 16 15 14 13 12 11 10
9 10 11 12 13 14 15 16 1 2 3 4 5 6 7 8
7 6 5 4 3 2 1 16 15 14 13 12 11 10 9 8
11 12 13 14 15 16 1 2 3 4 5 6 7 8 9 10
5 4 3 2 1 16 15 14 13 12 11 10 9 8 7 6
13 14 15 16 1 2 3 4 5 6 7 8 9 10 11 12
3 2 1 16 15 14 13 12 11 10 9 8 7 6 5 4
15 16 1 2 3 4 5 6 7 8 9 10 11 12 13 14
1 16 15 14 13 12 11 10 9 8 7 6 5 4 3 2
1 2 3 4 5 6 7 8 9 10 11 12 13 14 15 16
15 14 13 12 11 10 9 8 7 6 5 4 3 2 1 16
3 4 5 6 7 8 9 10 11 12 13 14 15 16 1 2
13 12 11 10 9 8 7 6 5 4 3 2 1 16 15 14
5 6 7 8 9 10 11 12 13 14 15 16 1 2 3 4
11 10 9 8 7 6 5 4 3 2 1 16 15 14 13 12
7 8 9 10 11 12 13 14 15 16 1 2 3 4 5 6

16
hgfZJyHNYdTvLFjNjJav
LnRCASa
BNjccssMGNZ
iS
LauqosbRHx
BZmohRKHccvdbtmQQZ
adUVjcc
UhxlZxyy
ldYcYUwhpZiI
hI
sDPNLItV
VgPkEHCeYL
KPbsAvqeztxybCWpsO
wDYHiXcQwDV
xKubE
aovYQSfPqwnIZwed
1 2 3 4 5 6 7 8 9 10 11 12 13 14 15 16
15 14 13 12 11 10 9 8 7 6 5 4 3 2 1 16
3 4 5 6 7 8 9 10 11 12 13 14 15 16 1 2
13 12 11 10 9 8 7 6 5 4 3 2 1 16 15 14
5 6 7 8 9 10 11 12 13 14 15 16 1 2 3 4
11 10 9 8 7 6 5 4 3 2 1 16 15 14 13 12
7 8 9 10 11 12 13 14 15 16 1 2 3 4 5 6
9 8 7 6 5 4 3 2 1 16 15 14 13 12 11 10
9 10 11 12 13 14 15 16 1 2 3 4 5 6 7 8
7 6 5 4 3 2 1 16 15 14 13 12 11 10 9 8
11 12 13 14 15 16 1 2 3 4 5 6 7 8 9 10
5 4 3 2 1 16 15 14 13 12 11 10 9 8 7 6
13 14 15 16 1 2 3 4 5 6 7 8 9 10 11 12
3 2 1 16 15 14 13 12 11 10 9 8 7 6 5 4
15 16 1 2 3 4 5 6 7 8 9 10 11 12 13 14
1 16 15 14 13 12 11 10 9 8 7 6 5 4 3 2
1 2 3 4 5 6 7 8 9 10 11 12 13 14 15 16
15 14 13 12 11 10 9 8 7 6 5 4 3 2 1 16
3 4 5 6 7 8 9 10 11 12 13 14 15 16 1 2
13 12 11 10 9 8 7 6 5 4 3 2 1 16 15 14
5 6 7 8 9 10 11 12 13 14 15 16 1 2 3 4
11 10 9 8 7 6 5 4 3 2 1 16 15 14 13 12
7 8 9 10 11 12 13 14 15 16 1 2 3 4 5 6
9 8 7 6 5 4 3 2 1 16 15 14 13 12 11 10
9 10 11 12 13 14 15 16 1 2 3 4 5 6 7 8
7 6 5 4 3 2 1 16 15 14 13 12 11 10 9 8
11 12 13 14 15 16 1 2 3 4 5 6 7 8 9 10
5 4 3 2 1 16 15 14 13 12 11 10 9 8 7 6
13 14 15 16 1 2 3 4 5 6 7 8 9 10 11 12
3 2 1 16 15 14 13 12 11 10 9 8 7 6 5 4
15 16 1 2 3 4 5 6 7 8 9 10 11 12 13 14
1 16 15 14 13 12 11 10 9 8 7 6 5 4 3 2
1 2 3 4 5 6 7 8 9 10 11 12 13 14 15 16
15 14 13 12 11 10 9 8 7 6 5 4 3 2 1 16
3 4 5 6 7 8 9 10 11 12 13 14 15 16 1 2
13 12 11 10 9 8 7 6 5 4 3 2 1 16 15 14
5 6 7 8 9 10 11 12 13 14 15 16 1 2 3 4
11 10 9 8 7 6 5 4 3 2 1 16 15 14 13 12
7 8 9 10 11 12 13 14 15 16 1 2 3 4 5 6

15
XvhhScaiJtfNy
qTUpTzpUYBamknxK
DwgB DM
pNhdnWuAhpxnO
DebetbwWlrBU QRs
iOaQpUmtJqhqmBc
Era
JzK
Fm tFgJ
jNyUSwYvPNcOtz
opyDDPzjl
XXhQWpvhLOcWNflIBSdM
wILwyu
kICFdKfPCjrGeuFS
W
1 2 3 4 5 6 7 8 9 10 11 12 13 14 15
14 13 12 11 10 9 8 7 6 5 4 3 2 1 15
3 4 5 6 7 8 9 10 11 12 13 14 15 1 2
12 11 10 9 8 7 6 5 4 3 2 1 15 14 13
5 6 7 8 9 10 11 12 13 14 15 1 2 3 4
10 9 8 7 6 5 4 3 2 1 15 14 13 12 11
7 8 9 10 11 12 13 14 15 1 2 3 4 5 6
8 7 6 5 4 3 2 1 15 14 13 12 11 10 9
9 10 11 12 13 14 15 1 2 3 4 5 6 7 8
6 5 4 3 2 1 15 14 13 12 11 10 9 8 7
11 12 13 14 15 1 2 3 4 5 6 7 8 9 10
4 3 2 1 15 14 13 12 11 10 9 8 7 6 5
13 14 15 1 2 3 4 5 6 7 8 9 10 11 12
2 1 15 14 13 12 11 10 9 8 7 6 5 4 3
15 1 2 3 4 5 6 7 8 9 10 11 12 13 14
15 14 13 12 11 10 9 8 7 6 5 4 3 2 1
2 3 4 5 6 7 8 9 10 11 12 13 14 15 1
13 12 11 10 9 8 7 6 5 4 3 2 1 15 14
4 5 6 7 8 9 10 11 12 13 14 15 1 2 3
11 10 9 8 7 6 5 4 3 2 1 15 14 13 12
6 7 8 9 10 11 12 13 14 15 1 2 3 4 5
9 8 7 6 5 4 3 2 1 15 14 13 12 11 10
8 9 10 11 12 13 14 15 1 2 3 4 5 6 7
7 6 5 4 3 2 1 15 14 13 12 11 10 9 8
10 11 12 13 14 15 1 2 3 4 5 6 7 8 9
5 4 3 2 1 15 14 13 12 11 10 9 8 7 6

19
W
tlNGThLgenDolycQZFd
ddCOFf
COvhzs
wdrPCqsgC
HYsgMKZtvmkcitZlK
dx
TESGvMxPls
sSZqO
KNcgFEjrsqkjjV
KPpygaTIgeGuXzF
otjvuSmORLEenGINB
sMKz
St
tq
eXQRmtpLIc
EnEJZsCQkfJs
gxGf uVSFuQcL
anEjpWFQvbk
1 2 3 4 5 6 7 8 9 10 11 12 13 14 15 16 17 18 19
18 17 16 15 14 13 12 11 10 9 8 7 6 5 4 3 2 1 19
3 4 5 6 7 8 9 10 11 12 13 14 15 16 17 18 19 1 2
16 15 14 13 12 11 10 9 8 7 6 5 4 3 2 1 19 18 17
5 6 7 8 9 10 11 12 13 14 15 16 17 18 19 1 2 3 4
14 13 12 11 10 9 8 7 6 5 4 3 2 1 19 18 17 16 15
7 8 9 10 11 12 13 14 15 16 17 18 19 1 2 3 4 5 6
12 11 10 9 8 7 6 5 4 3 2 1 19 18 17 16 15 14 13
9 10 11 12 13 14 15 16 17 18 19 1 2 3 4 5 6 7 8
10 9 8 7 6 5 4 3 2 1 19 18 17 16 15 14 13 12 11
11 12 13 14 15 16 17 18 19 1 2 3 4 5 6 7 8 9 10
8 7 6 5 4 3 2 1 19 18 17 16 15 14 13 12 11 10 9
13 14 15 16 17 18 19 1 2 3 4 5 6 7 8 9 10 11 12
6 5 4 3 2 1 19 18 17 16 15 14 13 12 11 10 9 8 7
15 16 17 18 19 1 2 3 4 5 6 7 8 9 10 11 12 13 14
4 3 2 1 19 18 17 16 15 14 13 12 11 10 9 8 7 6 5
17 18 19 1 2 3 4 5 6 7 8 9 10 11 12 13 14 15 16
2 1 19 18 17 16 15 14 13 12 11 10 9 8 7 6 5 4 3
19 1 2 3 4 5 6 7 8 9 10 11 12 13 14 15 16 17 18
19 18 17 16 15 14 13 12 11 10 9 8 7 6 5 4 3 2 1
2 3 4 5 6 7 8 9 10 11 12 13 14 15 16 17 18 19 1
17 16 15 14 13 12 11 10 9 8 7 6 5 4 3 2 1 19 18
4 5 6 7 8 9 10 11 12 13 14 15 16 17 18 19 1 2 3
15 14 13 12 11 10 9 8 7 6 5 4 3 2 1 19 18 17 16
6 7 8 9 10 11 12 13 14 15 16 17 18 19 1 2 3 4 5
13 12 11 10 9 8 7 6 5 4 3 2 1 19 18 17 16 15 14
8 9 10 11 12 13 14 15 16 17 18 19 1 2 3 4 5 6 7
11 10 9 8 7 6 5 4 3 2 1 19 18 17 16 15 14 13 12
10 11 12 13 14 15 16 17 18 19 1 2 3 4 5 6 7 8 9
9 8 7 6 5 4 3 2 1 19 18 17 16 15 14 13 12 11 10
12 13 14 15 16 17 18 19 1 2 3 4 5 6 7 8 9 10 11
7 6 5 4 3 2 1 19 18 17 16 15 14 13 12 11 10 9 8
14 15 16 17 18 19 1 2 3 4 5 6 7 8 9 10 11 12 13
5 4 3 2 1 19 18 17 16 15 14 13 12 11 10 9 8 7 6
16 17 18 19 1 2 3 4 5 6 7 8 9 10 11 12 13 14 15
3 2 1 19 18 17 16 15 14 13 12 11 10 9 8 7 6 5 4

19
Lfks
DEMpPZVmHxU
xsykcgceBttgChHl
pQKgkgkheyqlAyLdbx
SQgBgvCkhiuVCA
kTvHXLClwyEAeFvaspGK
MdCEUQWbYtcJSinyAV
P
SzFW VJpZOx
eEBZuFpEPHtevWbuP
YXhPxycTo
KIEbibnomnaWROguBV
LkAaJzzNbpZmoFmJnD
giOw
pAggpruv
XGV
LWwtitUqyUTAQUmgh
ylaWTy
wQx
1 2 3 4 5 6 7 8 9 10 11 12 13 14 15 16 17 18 19
18 17 16 15 14 13 12 11 10 9 8 7 6 5 4 3 2 1 19
3 4 5 6 7 8 9 10 11 12 13 14 15 16 17 18 19 1 2
16 15 14 13 12 11 10 9 8 7 6 5 4 3 2 1 19 18 17
5 6 7 8 9 10 11 12 13 14 15 16 17 18 19 1 2 3 4
14 13 12 11 10 9 8 7 6 5 4 3 2 1 19 18 17 16 15
7 8 9 10 11 12 13 14 15 16 17 18 19 1 2 3 4 5 6
12 11 10 9 8 7 6 5 4 3 2 1 19 18 17 16 15 14 13
9 10 11 12 13 14 15 16 17 18 19 1 2 3 4 5 6 7 8
10 9 8 7 6 5 4 3 2 1 19 18 17 16 15 14 13 12 11
11 12 13 14 15 16 17 18 19 1 2 3 4 5 6 7 8 9 10
8 7 6 5 4 3 2 1 19 18 17 16 15 14 13 12 11 10 9
13 14 15 16 17 18 19 1 2 3 4 5 6 7 8 9 10 11 12
6 5 4 3 2 1 19 18 17 16 15 14 13 12 11 10 9 8 7
15 16 17 18 19 1 2 3 4 5 6 7 8 9 10 11 12 13 14
4 3 2 1 19 18 17 16 15 14 13 12 11 10 9 8 7 6 5
17 18 19 1 2 3 4 5 6 7 8 9 10 11 12 13 14 15 16
2 1 19 18 17 16 15 14 13 12 11 10 9 8 7 6 5 4 3
19 1 2 3 4 5 6 7 8 9 10 11 12 13 14 15 16 17 18
19 18 17 16 15 14 13 12 11 10 9 8 7 6 5 4 3 2 1
2 3 4 5 6 7 8 9 10 11 12 13 14 15 16 17 18 19 1
17 16 15 14 13 12 11 10 9 8 7 6 5 4 3 2 1 19 18
4 5 6 7 8 9 10 11 12 13 14 15 16 17 18 19 1 2 3
15 14 13 12 11 10 9 8 7 6 5 4 3 2 1 19 18 17 16
6 7 8 9 10 11 12 13 14 15 16 17 18 19 1 2 3 4 5
13 12 11 10 9 8 7 6 5 4 3 2 1 19 18 17 16 15 14
8 9 10 11 12 13 14 15 16 17 18 19 1 2 3 4 5 6 7
11 10 9 8 7 6 5 4 3 2 1 19 18 17 16 15 14 13 12
10 11 12 13 14 15 16 17 18 19 1 2 3 4 5 6 7 8 9
9 8 7 6 5 4 3 2 1 19 18 17 16 15 14 13 12 11 10
12 13 14 15 16 17 18 19 1 2 3 4 5 6 7 8 9 10 11
7 6 5 4 3 2 1 19 18 17 16 15 14 13 12 11 10 9 8
14 15 16 17 18 19 1 2 3 4 5 6 7 8 9 10 11 12 13
5 4 3 2 1 19 18 17 16 15 14 13 12 11 10 9 8 7 6
16 17 18 19 1 2 3 4 5 6 7 8 9 10 11 12 13 14 15
3 2 1 19 18 17 16 15 14 13 12 11 10 9 8 7 6 5 4

17
DEzEJsijbo A
fRcpKGmXySdHnq
mEiMNazkpdfMhQcKO
qyeuZq
B
oYeQRb
dey
rsvoRwfzMJSSLYTVXYJw
HNnAyhC r
Z
RliRQczx
iwJdIHXNuC
cLvU XAjwSnnwTqHqyqv
pFhfXUOOX
FnT 
ISFn
afFjn
1 2 3 4 5 6 7 8 9 10 11 12 13 14 15 16 17
16 15 14 13 12 11 10 9 8 7 6 5 4 3 2 1 17
3 4 5 6 7 8 9 10 11 12 13 14 15 16 17 1 2
14 13 12 11 10 9 8 7 6 5 4 3 2 1 17 16 15
5 6 7 8 9 10 11 12 13 14 15 16 17 1 2 3 4
12 11 10 9 8 7 6 5 4 3 2 1 17 16 15 14 13
7 8 9 10 11 12 13 14 15 16 17 1 2 3 4 5 6
10 9 8 7 6 5 4 3 2 1 17 16 15 14 13 12 11
9 10 11 12 13 14 15 16 17 1 2 3 4 5 6 7 8
8 7 6 5 4 3 2 1 17 16 15 14 13 12 11 10 9
11 12 13 14 15 16 17 1 2 3 4 5 6 7 8 9 10
6 5 4 3 2 1 17 16 15 14 13 12 11 10 9 8 7
13 14 15 16 17 1 2 3 4 5 6 7 8 9 10 11 12
4 3 2 1 17 16 15 14 13 12 11 10 9 8 7 6 5
15 16 17 1 2 3 4 5 6 7 8 9 10 11 12 13 14
2 1 17 16 15 14 13 12 11 10 9 8 7 6 5 4 3
17 1 2 3 4 5 6 7 8 9 10 11 12 13 14 15 16
17 16 15 14 13 12 11 10 9 8 7 6 5 4 3 2 1
2 3 4 5 6 7 8 9 10 11 12 13 14 15 16 17 1
15 14 13 12 11 10 9 8 7 6 5 4 3 2 1 17 16
4 5 6 7 8 9 10 11 12 13 14 15 16 17 1 2 3
13 12 11 10 9 8 7 6 5 4 3 2 1 17 16 15 14
6 7 8 9 10 11 12 13 14 15 16 17 1 2 3 4 5
11 10 9 8 7 6 5 4 3 2 1 17 16 15 14 13 12
8 9 10 11 12 13 14 15 16 17 1 2 3 4 5 6 7
9 8 7 6 5 4 3 2 1 17 16 15 14 13 12 11 10
10 11 12 13 14 15 16 17 1 2 3 4 5 6 7 8 9
7 6 5 4 3 2 1 17 16 15 14 13 12 11 10 9 8
12 13 14 15 16 17 1 2 3 4 5 6 7 8 9 10 11
5 4 3 2 1 17 16 15 14 13 12 11 10 9 8 7 6
14 15 16 17 1 2 3 4 5 6 7 8 9 10 11 12 13

18
xBQHSJuRcKiYefTxzL
RJFLcF
UfyuLSBhDwrWzPBihc
PxMlkSnPrpGeqh EUBE
wvnaCGSoDGVYrB
oBXnjnjlxnd
ZUJSfSGfdz
a yxOVSQmJCoUwI
C dOJy
AASsLVgbwZRRKyfJQ
 atulEHKWHisTW
MldQCIKVFC
munROOrxLk
GBrccyMmAIe
vlpEPMfs
z
yBsiWGboGztYrKC
vLNffcspGSCY
1 2 3 4 5 6 7 8 9 10 11 12 13 14 15 16 17 18
17 16 15 14 13 12 11 10 9 8 7 6 5 4 3 2 1 18
3 4 5 6 7 8 9 10 11 12 13 14 15 16 17 18 1 2
15 14 13 12 11 10 9 8 7 6 5 4 3 2 1 18 17 16
5 6 7 8 9 10 11 12 13 14 15 16 17 18 1 2 3 4
13 12 11 10 9 8 7 6 5 4 3 2 1 18 17 16 15 14
7 8 9 10 11 12 13 14 15 16 17 18 1 2 3 4 5 6
11 10 9 8 7 6 5 4 3 2 1 18 17 16 15 14 13 12
9 10 11 12 13 14 15 16 17 18 1 2 3 4 5 6 7 8
9 8 7 6 5 4 3 2 1 18 17 16 15 14 13 12 11 10
11 12 13 14 15 16 17 18 1 2 3 4 5 6 7 8 9 10
7 6 5 4 3 2 1 18 17 16 15 14 13 12 11 10 9 8
13 14 15 16 17 18 1 2 3 4 5 6 7 8 9 10 11 12
5 4 3 2 1 18 17 16 15 14 13 12 11 10 9 8 7 6
15 16 17 18 1 2 3 4 5 6 7 8 9 10 11 12 13 14
3 2 1 18 17 16 15 14 13 12 11 10 9 8 7 6 5 4
17 18 1 2 3 4 5 6 7 8 9 10 11 12 13 14 15 16
1 18 17 16 15 14 13 12 11 10 9 8 7 6 5 4 3 2
1 2 3 4 5 6 7 8 9 10 11 12 13 14 15 16 17 18
17 16 15 14 13 12 11 10 9 8 7 6 5 4 3 2 1 18
3 4 5 6 7 8 9 10 11 12 13 14 15 16 17 18 1 2
15 14 13 12 11 10 9 8 7 6 5 4 3 2 1 18 17 16
5 6 7 8 9 10 11 12 13 14 15 16 17 18 1 2 3 4

11
GGKsneuecDcfceKXp
WDUyBknnZwtmGGD
xZXtdnuV
nH
skydlIcrDVGajq
MDxo
GeWc
GQKeZVBkqNokGiWCGi
BfofeJC
xbSARnczctFyBSFKe
WLvexFgafRD
1 2 3 4 5 6 7 8 9 10 11
10 9 8 7 6 5 4 3 2 1 11
3 4 5 6 7 8 9 10 11 1 2
8 7 6 5 4 3 2 1 11 10 9
5 6 7 8 9 10 11 1 2 3 4
6 5 4 3 2 1 11 10 9 8 7
7 8 9 10 11 1 2 3 4 5 6
4 3 2 1 11 10 9 8 7 6 5
9 10 11 1 2 3 4 5 6 7 8
2 1 11 10 9 8 7 6 5 4 3
11 1 2 3 4 5 6 7 8 9 10
11 10 9 8 7 6 5 4 3 2 1
2 3 4 5 6 7 8 9 10 11 1
9 8 7 6 5 4 3 2 1 11 10
4 5 6 7 8 9 10 11 1 2 3
7 6 5 4 3 2 1 11 10 9 8
6 7 8 9 10 11 1 2 3 4 5
5 4 3 2 1 11 10 9 8 7 6
8 9 10 11 1 2 3 4 5 6 7
3 2 1 11 10 9 8 7 6 5 4
10 11 1 2 3 4 5 6 7 8 9
1 11 10 9 8 7 6 5 4 3 2
1 2 3 4 5 6 7 8 9 10 11
10 9 8 7 6 5 4 3 2 1 11
3 4 5 6 7 8 9 10 11 1 2
8 7 6 5 4 3 2 1 11 10 9
5 6 7 8 9 10 11 1 2 3 4
6 5 4 3 2 1 11 10 9 8 7
7 8 9 10 11 1 2 3 4 5 6
4 3 2 1 11 10 9 8 7 6 5
9 10 11 1 2 3 4 5 6 7 8
2 1 11 10 9 8 7 6 5 4 3
11 1 2 3 4 5 6 7 8 9 10
11 10 9 8 7 6 5 4 3 2 1
2 3 4 5 6 7 8 9 10 11 1
9 8 7 6 5 4 3 2 1 11 10
4 5 6 7 8 9 10 11 1 2 3

8
TlXZn lWUUS
zUGKKCmA NrL
xzd bUbpCMT
xGqqShNc
DxgjVFBcQbzdHnxTZWlx
APUTWor
vTKC DzJAlWnqchfSRKX
AbnJXhvGc
1 2 3 4 5 6 7 8
7 6 5 4 3 2 1 8
3 4 5 6 7 8 1 2
5 4 3 2 1 8 7 6
5 6 7 8 1 2 3 4
3 2 1 8 7 6 5 4
7 8 1 2 3 4 5 6
1 8 7 6 5 4 3 2
1 2 3 4 5 6 7 8
7 6 5 4 3 2 1 8
3 4 5 6 7 8 1 2
5 4 3 2 1 8 7 6
5 6 7 8 1 2 3 4
3 2 1 8 7 6 5 4
7 8 1 2 3 4 5 6
1 8 7 6 5 4 3 2
1 2 3 4 5 6 7 8
7 6 5 4 3 2 1 8
3 4 5 6 7 8 1 2
5 4 3 2 1 8 7 6
5 6 7 8 1 2 3 4
3 2 1 8 7 6 5 4
7 8 1 2 3 4 5 6
1 8 7 6 5 4 3 2
1 2 3 4 5 6 7 8
7 6 5 4 3 2 1 8
3 4 5 6 7 8 1 2
5 4 3 2 1 8 7 6
5 6 7 8 1 2 3 4
3 2 1 8 7 6 5 4
7 8 1 2 3 4 5 6
1 8 7 6 5 4 3 2
1 2 3 4 5 6 7 8
7 6 5 4 3 2 1 8
3 4 5 6 7 8 1 2
5 4 3 2 1 8 7 6
5 6 7 8 1 2 3 4
3 2 1 8 7 6 5 4
7 8 1 2 3 4 5 6
1 8 7 6 5 4 3 2

14
yHoDJTMmb
TVUdQtw
oBV
eaEarTdkRMAUnUChmcwq
ZaoEJ
WuxpS VA
LKfw Zj
ReKO
yiStst
PVNSQhIZmTJANsHC
i FweLsBRR
k DZEu
qPavDmK
JURtpDdjADyIbD
1 2 3 4 5 6 7 8 9 10 11 12 13 14
13 12 11 10 9 8 7 6 5 4 3 2 1 14
3 4 5 6 7 8 9 10 11 12 13 14 1 2
11 10 9 8 7 6 5 4 3 2 1 14 13 12
5 6 7 8 9 10 11 12 13 14 1 2 3 4
9 8 7 6 5 4 3 2 1 14 13 12 11 10
7 8 9 10 11 12 13 14 1 2 3 4 5 6
7 6 5 4 3 2 1 14 13 12 11 10 9 8
9 10 11 12 13 14 1 2 3 4 5 6 7 8
5 4 3 2 1 14 13 12 11 10 9 8 7 6
11 12 13 14 1 2 3 4 5 6 7 8 9 10
3 2 1 14 13 12 11 10 9 8 7 6 5 4
13 14 1 2 3 4 5 6 7 8 9 10 11 12
1 14 13 12 11 10 9 8 7 6 5 4 3 2
1 2 3 4 5 6 7 8 9 10 11 12 13 14
13 12 11 10 9 8 7 6 5 4 3 2 1 14
3 4 5 6 7 8 9 10 11 12 13 14 1 2
11 10 9 8 7 6 5 4 3 2 1 14 13 12
5 6 7 8 9 10 11 12 13 14 1 2 3 4
9 8 7 6 5 4 3 2 1 14 13 12 11 10
7 8 9 10 11 12 13 14 1 2 3 4 5 6
7 6 5 4 3 2 1 14 13 12 11 10 9 8
9 10 11 12 13 14 1 2 3 4 5 6 7 8
5 4 3 2 1 14 13 12 11 10 9 8 7 6
11 12 13 14 1 2 3 4 5 6 7 8 9 10
3 2 1 14 13 12 11 10 9 8 7 6 5 4
13 14 1 2 3 4 5 6 7 8 9 10 11 12
1 14 13 12 11 10 9 8 7 6 5 4 3 2
1 2 3 4 5 6 7 8 9 10 11 12 13 14
13 12 11 10 9 8 7 6 5 4 3 2 1 14
3 4 5 6 7 8 9 10 11 12 13 14 1 2
11 10 9 8 7 6 5 4 3 2 1 14 13 12
5 6 7 8 9 10 11 12 13 14 1 2 3 4
9 8 7 6 5 4 3 2 1 14 13 12 11 10

3
SvonGx NGAAWiipTpity
og
i
1 2 3
2 1 3
3 1 2
3 2 1
2 3 1
1 3 2
1 2 3
2 1 3
3 1 2
3 2 1
2 3 1
1 3 2
1 2 3
2 1 3
3 1 2
3 2 1
2 3 1
1 3 2
1 2 3
2 1 3
3 1 2
3 2 1
2 3 1
1 3 2
1 2 3
2 1 3
3 1 2
3 2 1
2 3 1
1 3 2
1 2 3
2 1 3
3 1 2
3 2 1
2 3 1
1 3 2
1 2 3
2 1 3

18
kMKdXLdxISk
pYfdvOxFMRHatv
JeIRclDPYn
M WmJMXvuipMvmcy
hNLyFTBqVytbXViPxa
noQDhxihnO
ehhLFA
EunTEXwysfjX
DdzJSycvwafKj
ZBwXoxhrpGi
wmfKbNMHdQTHZL
CMwWvMuCHyW
YBSuBhTDMzoofalZmW
PCuUVDtFGr
I
TaVDoGLUhiHYlsHRjAby
LRKIoPfPNqCrW WD
OoXdEnL
1 2 3 4 5 6 7 8 9 10 11 12 13 14 15 16 17 18
17 16 15 14 13 12 11 10 9 8 7 6 5 4 3 2 1 18
3 4 5 6 7 8 9 10 11 12 13 14 15 16 17 18 1 2
15 14 13 12 11 10 9 8 7 6 5 4 3 2 1 18 17 16
5 6 7 8 9 10 11 12 13 14 15 16 17 18 1 2 3 4
13 12 11 10 9 8 7 6 5 4 3 2 1 18 17 16 15 14
7 8 9 10 11 12 13 14 15 16 17 18 1 2 3 4 5 6
11 10 9 8 7 6 5 4 3 2 1 18 17 16 15 14 13 12
9 10 11 12 13 14 15 16 17 18 1 2 3 4 5 6 7 8
9 8 7 6 5 4 3 2 1 18 17 16 15 14 13 12 11 10
11 12 13 14 15 16 17 18 1 2 3 4 5 6 7 8 9 10
7 6 5 4 3 2 1 18 17 16 15 14 13 12 11 10 9 8
13 14 15 16 17 18 1 2 3 4 5 6 7 8 9 10 11 12
5 4 3 2 1 18 17 16 15 14 13 12 11 10 9 8 7 6
15 16 17 18 1 2 3 4 5 6 7 8 9 10 11 12 13 14
3 2 1 18 17 16 15 14 13 12 11 10 9 8 7 6 5 4
17 18 1 2 3 4 5 6 7 8 9 10 11 12 13 14 15 16
1 18 17 16 15 14 13 12 11 10 9 8 7 6 5 4 3 2
1 2 3 4 5 6 7 8 9 10 11 12 13 14 15 16 17 18
17 16 15 14 13 12 11 10 9 8 7 6 5 4 3 2 1 18
3 4 5 6 7 8 9 10 11 12 13 14 15 16 17 18 1 2
15 14 13 12 11 10 9 8 7 6 5 4 3 2 1 18 17 16
5 6 7 8 9 10 11 12 13 14 15 16 17 18 1 2 3 4

18
AXYDotmadnf
c I
eeqLWgWEJjFLvBE
AKBUeN oxWrMqDeCz 
qoIYFuHvZWmGCcaj
wORhd
zXCFHhjzlTk
XHpDGvSoyLMIXVwecBA
N
FXiC
iR
BIRBTPizn
TxIr eJF
dwMrzDxMbB
Xail
U
PHExcimMS
qLWiYDI
1 2 3 4 5 6 7 8 9 10 11 12 13 14 15 16 17 18
17 16 15 14 13 12 11 10 9 8 7 6 5 4 3 2 1 18
3 4 5 6 7 8 9 10 11 12 13 14 15 16 17 18 1 2
15 14 13 12 11 10 9 8 7 6 5 4 3 2 1 18 17 16
5 6 7 8 9 10 11 12 13 14 15 16 17 18 1 2 3 4
13 12 11 10 9 8 7 6 5 4 3 2 1 18 17 16 15 14
7 8 9 10 11 12 13 14 15 16 17 18 1 2 3 4 5 6
11 10 9 8 7 6 5 4 3 2 1 18 17 16 15 14 13 12
9 10 11 12 13 14 15 16 17 18 1 2 3 4 5 6 7 8
9 8 7 6 5 4 3 2 1 18 17 16 15 14 13 12 11 10
11 12 13 14 15 16 17 18 1 2 3 4 5 6 7 8 9 10
7 6 5 4 3 2 1 18 17 16 15 14 13 12 11 10 9 8
13 14 15 16 17 18 1 2 3 4 5 6 7 8 9 10 11 12
5 4 3 2 1 18 17 16 15 14 13 12 11 10 9 8 7 6
15 16 17 18 1 2 3 4 5 6 7 8 9 10 11 12 13 14
3 2 1 18 17 16 15 14 13 12 11 10 9 8 7 6 5 4
17 18 1 2 3 4 5 6 7 8 9 10 11 12 13 14 15 16
1 18 17 16 15 14 13 12 11 10 9 8 7 6 5 4 3 2
1 2 3 4 5 6 7 8 9 10 11 12 13 14 15 16 17 18
17 16 15 14 13 12 11 10 9 8 7 6 5 4 3 2 1 18
3 4 5 6 7 8 9 10 11 12 13 14 15 16 17 18 1 2
15 14 13 12 11 10 9 8 7 6 5 4 3 2 1 18 17 16
5 6 7 8 9 10 11 12 13 14 15 16 17 18 1 2 3 4

7
ULLFqZ
zzRtiKaPOkOfo Svrob
dE
viNIFqVPSuWkXry
sIAAnkS
WjpogQ
lbxmW
1 2 3 4 5 6 7
6 5 4 3 2 1 7
3 4 5 6 7 1 2
4 3 2 1 7 6 5
5 6 7 1 2 3 4
2 1 7 6 5 4 3
7 1 2 3 4 5 6
7 6 5 4 3 2 1
2 3 4 5 6 7 1
5 4 3 2 1 7 6
4 5 6 7 1 2 3
3 2 1 7 6 5 4
6 7 1 2 3 4 5
1 7 6 5 4 3 2
1 2 3 4 5 6 7
6 5 4 3 2 1 7
3 4 5 6 7 1 2
4 3 2 1 7 6 5
5 6 7 1 2 3 4
2 1 7 6 5 4 3
7 1 2 3 4 5 6
7 6 5 4 3 2 1
2 3 4 5 6 7 1
5 4 3 2 1 7 6
4 5 6 7 1 2 3
3 2 1 7 6 5 4
6 7 1 2 3 4 5

8
Xfg
IKHnOJsQciIedhHo
pHkXIUOMNfIbEeZFT
wHlXLrPOEOHeSIsXR
TUINP PyfOwuj UCpJ
rIjJYvLqmKMVLDbDHtTM
epHJWrhTZIMU qFLv
jqjNFibjQrwNgs
1 2 3 4 5 6 7 8
7 6 5 4 3 2 1 8
3 4 5 6 7 8 1 2
5 4 3 2 1 8 7 6
5 6 7 8 1 2 3 4
3 2 1 8 7 6 5 4
7 8 1 2 3 4 5 6
1 8 7 6 5 4 3 2
1 2 3 4 5 6 7 8
7 6 5 4 3 2 1 8
3 4 5 6 7 8 1 2
5 4 3 2 1 8 7 6
5 6 7 8 1 2 3 4
3 2 1 8 7 6 5 4
7 8 1 2 3 4 5 6
1 8 7 6 5 4 3 2
1 2 3 4 5 6 7 8
7 6 5 4 3 2 1 8
3 4 5 6 7 8 1 2
5 4 3 2 1 8 7 6
5 6 7 8 1 2 3 4
3 2 1 8 7 6 5 4
7 8 1 2 3 4 5 6
1 8 7 6 5 4 3 2
1 2 3 4 5 6 7 8
7 6 5 4 3 2 1 8
3 4 5 6 7 8 1 2
5 4 3 2 1 8 7 6
5 6 7 8 1 2 3 4
3 2 1 8 7 6 5 4
7 8 1 2 3 4 5 6
1 8 7 6 5 4 3 2
1 2 3 4 5 6 7 8
7 6 5 4 3 2 1 8
3 4 5 6 7 8 1 2
5 4 3 2 1 8 7 6
5 6 7 8 1 2 3 4
3 2 1 8 7 6 5 4
7 8 1 2 3 4 5 6
1 8 7 6 5 4 3 2

9
LcEygCaqSh
iHTvbOUkrOTrG
U
wmHsLvK
oSAyIDMwjHIfPypGrp
hIXKRMKfMlkaoT
xwjcOZOw qLfhPM
CrIhkfeHAVZt
fLHJIEZxBF
1 2 3 4 5 6 7 8 9
8 7 6 5 4 3 2 1 9
3 4 5 6 7 8 9 1 2
6 5 4 3 2 1 9 8 7
5 6 7 8 9 1 2 3 4
4 3 2 1 9 8 7 6 5
7 8 9 1 2 3 4 5 6
2 1 9 8 7 6 5 4 3
9 1 2 3 4 5 6 7 8
9 8 7 6 5 4 3 2 1
2 3 4 5 6 7 8 9 1
7 6 5 4 3 2 1 9 8
4 5 6 7 8 9 1 2 3
5 4 3 2 1 9 8 7 6
6 7 8 9 1 2 3 4 5
3 2 1 9 8 7 6 5 4
8 9 1 2 3 4 5 6 7
1 9 8 7 6 5 4 3 2
1 2 3 4 5 6 7 8 9
8 7 6 5 4 3 2 1 9
3 4 5 6 7 8 9 1 2
6 5 4 3 2 1 9 8 7
5 6 7 8 9 1 2 3 4
4 3 2 1 9 8 7 6 5
7 8 9 1 2 3 4 5 6
2 1 9 8 7 6 5 4 3
9 1 2 3 4 5 6 7 8
9 8 7 6 5 4 3 2 1
2 3 4 5 6 7 8 9 1
7 6 5 4 3 2 1 9 8
4 5 6 7 8 9 1 2 3
5 4 3 2 1 9 8 7 6

10
fIdyEeLKHs
exFppLsSEksnzfO
SFrnelfWcIEo
wYxrJIBqvDacCVNNayfa
fnL
aazuxMBMtPtHkcqHnK
YosaOqRuVJlgbSM
qJNGzZPyPY
pqgOreLPin qoJs
WiZjZLzPPJIlPtA
1 2 3 4 5 6 7 8 9 10
9 8 7 6 5 4 3 2 1 10
3 4 5 6 7 8 9 10 1 2
7 6 5 4 3 2 1 10 9 8
5 6 7 8 9 10 1 2 3 4
5 4 3 2 1 10 9 8 7 6
7 8 9 10 1 2 3 4 5 6
3 2 1 10 9 8 7 6 5 4
9 10 1 2 3 4 5 6 7 8
1 10 9 8 7 6 5 4 3 2
1 2 3 4 5 6 7 8 9 10
9 8 7 6 5 4 3 2 1 10
3 4 5 6 7 8 9 10 1 2
7 6 5 4 3 2 1 10 9 8
5 6 7 8 9 10 1 2 3 4
5 4 3 2 1 10 9 8 7 6
7 8 9 10 1 2 3 4 5 6
3 2 1 10 9 8 7 6 5 4
9 10 1 2 3 4 5 6 7 8
1 10 9 8 7 6 5 4 3 2
1 2 3 4 5 6 7 8 9 10
9 8 7 6 5 4 3 2 1 10
3 4 5 6 7 8 9 10 1 2
7 6 5 4 3 2 1 10 9 8

18
xCYb
MPtT
y
TmlvVbIPddOtSaouCN
FgbfWcHGG
PXM QPDeZSkukmsKBp
WvatkibFg 
dVdkqtUlP
eMvymbCUgJs
OeHrt uGR yhDSV
a ZqElWJTsN HoedX  
GZAmhB TXZjVm
NBeAi
yKeeTbGOmPKc dMNT
JpPqR
usqqL
AgydZuIIMZnDTouNewR
HRVPjIkCzEs tQE V
1 2 3 4 5 6 7 8 9 10 11 12 13 14 15 16 17 18
17 16 15 14 13 12 11 10 9 8 7 6 5 4 3 2 1 18
3 4 5 6 7 8 9 10 11 12 13 14 15 16 17 18 1 2
15 14 13 12 11 10 9 8 7 6 5 4 3 2 1 18 17 16
5 6 7 8 9 10 11 12 13 14 15 16 17 18 1 2 3 4
13 12 11 10 9 8 7 6 5 4 3 2 1 18 17 16 15 14
7 8 9 10 11 12 13 14 15 16 17 18 1 2 3 4 5 6
11 10 9 8 7 6 5 4 3 2 1 18 17 16 15 14 13 12
9 10 11 12 13 14 15 16 17 18 1 2 3 4 5 6 7 8
9 8 7 6 5 4 3 2 1 18 17 16 15 14 13 12 11 10
11 12 13 14 15 16 17 18 1 2 3 4 5 6 7 8 9 10
7 6 5 4 3 2 1 18 17 16 15 14 13 12 11 10 9 8
13 14 15 16 17 18 1 2 3 4 5 6 7 8 9 10 11 12
5 4 3 2 1 18 17 16 15 14 13 12 11 10 9 8 7 6
15 16 17 18 1 2 3 4 5 6 7 8 9 10 11 12 13 14
3 2 1 18 17 16 15 14 13 12 11 10 9 8 7 6 5 4
17 18 1 2 3 4 5 6 7 8 9 10 11 12 13 14 15 16
1 18 17 16 15 14 13 12 11 10 9 8 7 6 5 4 3 2
1 2 3 4 5 6 7 8 9 10 11 12 13 14 15 16 17 18
17 16 15 14 13 12 11 10 9 8 7 6 5 4 3 2 1 18
3 4 5 6 7 8 9 10 11 12 13 14 15 16 17 18 1 2
15 14 13 12 11 10 9 8 7 6 5 4 3 2 1 18 17 16
5 6 7 8 9 10 11 12 13 14 15 16 17 18 1 2 3 4

3
k
KRIFRtCen
MnGhMYxgJWVwrFnY
1 2 3
2 1 3
3 1 2
3 2 1
2 3 1
1 3 2
1 2 3
2 1 3
3 1 2
3 2 1
2 3 1
1 3 2
1 2 3
2 1 3
3 1 2
3 2 1
2 3 1
1 3 2
1 2 3
2 1 3
3 1 2
3 2 1
2 3 1
1 3 2
1 2 3
2 1 3
3 1 2
3 2 1
2 3 1
1 3 2
1 2 3
2 1 3
3 1 2
3 2 1
2 3 1
1 3 2
1 2 3
2 1 3

11
ExukXJLlAsnqRYx
ia
qyYZVOdaKBrCEnmawHIi
yQdSTSAXguJUBDQZq
eVaEzvahD
QFFesK
zAT
CfFIqe IyWmh
vuXsZbUpWKJAoeXKdHJG
vkNaUwTw
Nz
1 2 3 4 5 6 7 8 9 10 11
10 9 8 7 6 5 4 3 2 1 11
3 4 5 6 7 8 9 10 11 1 2
8 7 6 5 4 3 2 1 11 10 9
5 6 7 8 9 10 11 1 2 3 4
6 5 4 3 2 1 11 10 9 8 7
7 8 9 10 11 1 2 3 4 5 6
4 3 2 1 11 10 9 8 7 6 5
9 10 11 1 2 3 4 5 6 7 8
2 1 11 10 9 8 7 6 5 4 3
11 1 2 3 4 5 6 7 8 9 10
11 10 9 8 7 6 5 4 3 2 1
2 3 4 5 6 7 8 9 10 11 1
9 8 7 6 5 4 3 2 1 11 10
4 5 6 7 8 9 10 11 1 2 3
7 6 5 4 3 2 1 11 10 9 8
6 7 8 9 10 11 1 2 3 4 5
5 4 3 2 1 11 10 9 8 7 6
8 9 10 11 1 2 3 4 5 6 7
3 2 1 11 10 9 8 7 6 5 4
10 11 1 2 3 4 5 6 7 8 9
1 11 10 9 8 7 6 5 4 3 2
1 2 3 4 5 6 7 8 9 10 11
10 9 8 7 6 5 4 3 2 1 11
3 4 5 6 7 8 9 10 11 1 2
8 7 6 5 4 3 2 1 11 10 9
5 6 7 8 9 10 11 1 2 3 4
6 5 4 3 2 1 11 10 9 8 7
7 8 9 10 11 1 2 3 4 5 6
4 3 2 1 11 10 9 8 7 6 5
9 10 11 1 2 3 4 5 6 7 8
2 1 11 10 9 8 7 6 5 4 3
11 1 2 3 4 5 6 7 8 9 10
11 10 9 8 7 6 5 4 3 2 1
2 3 4 5 6 7 8 9 10 11 1
9 8 7 6 5 4 3 2 1 11 10
4 5 6 7 8 9 10 11 1 2 3

11
rUipflFMOOFaeOf
DhZShisY
OuvzCCVxSbFgtUfB
W
ZOGuTVKEVjQCLKV
WwwEfVYwQ
 CLciiZjDzZMq
tkT
oeuvgtnB
ocJUBgvZziwjmE Ocf 
j hANsVrHIKFw
1 2 3 4 5 6 7 8 9 10 11
10 9 8 7 6 5 4 3 2 1 11
3 4 5 6 7 8 9 10 11 1 2
8 7 6 5 4 3 2 1 11 10 9
5 6 7 8 9 10 11 1 2 3 4
6 5 4 3 2 1 11 10 9 8 7
7 8 9 10 11 1 2 3 4 5 6
4 3 2 1 11 10 9 8 7 6 5
9 10 11 1 2 3 4 5 6 7 8
2 1 11 10 9 8 7 6 5 4 3
11 1 2 3 4 5 6 7 8 9 10
11 10 9 8 7 6 5 4 3 2 1
2 3 4 5 6 7 8 9 10 11 1
9 8 7 6 5 4 3 2 1 11 10
4 5 6 7 8 9 10 11 1 2 3
7 6 5 4 3 2 1 11 10 9 8
6 7 8 9 10 11 1 2 3 4 5
5 4 3 2 1 11 10 9 8 7 6
8 9 10 11 1 2 3 4 5 6 7
3 2 1 11 10 9 8 7 6 5 4
10 11 1 2 3 4 5 6 7 8 9
1 11 10 9 8 7 6 5 4 3 2
1 2 3 4 5 6 7 8 9 10 11
10 9 8 7 6 5 4 3 2 1 11
3 4 5 6 7 8 9 10 11 1 2
8 7 6 5 4 3 2 1 11 10 9
5 6 7 8 9 10 11 1 2 3 4
6 5 4 3 2 1 11 10 9 8 7
7 8 9 10 11 1 2 3 4 5 6
4 3 2 1 11 10 9 8 7 6 5
9 10 11 1 2 3 4 5 6 7 8
2 1 11 10 9 8 7 6 5 4 3
11 1 2 3 4 5 6 7 8 9 10
11 10 9 8 7 6 5 4 3 2 1
2 3 4 5 6 7 8 9 10 11 1
9 8 7 6 5 4 3 2 1 11 10
4 5 6 7 8 9 10 11 1 2 3

5
mXQjrZtoHtt
ykTOQTSpf
JXlySoHlEHCuVwIfYA
WTEgHdSjlwyZgRuipfvd
V
1 2 3 4 5
4 3 2 1 5
3 4 5 1 2
2 1 5 4 3
5 1 2 3 4
5 4 3 2 1
2 3 4 5 1
3 2 1 5 4
4 5 1 2 3
1 5 4 3 2
1 2 3 4 5
4 3 2 1 5
3 4 5 1 2
2 1 5 4 3
5 1 2 3 4
5 4 3 2 1
2 3 4 5 1
3 2 1 5 4
4 5 1 2 3
1 5 4 3 2
1 2 3 4 5
4 3 2 1 5

12
KAfKwGkJRDQMyATDCmG
Lbv
kiRdSego
vBwAVokkwRCtrviTujWv
XcFaaIQnINuNwWlLg
ttrkPD
QvtbLwhCViAdJ
QnkesxkVTBqPJ PjKiVx
XtkKbh VFcfpyLDYxnS
A
eM
HGwmXFwHOHHcWs
1 2 3 4 5 6 7 8 9 10 11 12
11 10 9 8 7 6 5 4 3 2 1 12
3 4 5 6 7 8 9 10 11 12 1 2
9 8 7 6 5 4 3 2 1 12 11 10
5 6 7 8 9 10 11 12 1 2 3 4
7 6 5 4 3 2 1 12 11 10 9 8
7 8 9 10 11 12 1 2 3 4 5 6
5 4 3 2 1 12 11 10 9 8 7 6
9 10 11 12 1 2 3 4 5 6 7 8
3 2 1 12 11 10 9 8 7 6 5 4
11 12 1 2 3 4 5 6 7 8 9 10
1 12 11 10 9 8 7 6 5 4 3 2
1 2 3 4 5 6 7 8 9 10 11 12
11 10 9 8 7 6 5 4 3 2 1 12
3 4 5 6 7 8 9 10 11 12 1 2
9 8 7 6 5 4 3 2 1 12 11 10
5 6 7 8 9 10 11 12 1 2 3 4
7 6 5 4 3 2 1 12 11 10 9 8
7 8 9 10 11 12 1 2 3 4 5 6
5 4 3 2 1 12 11 10 9 8 7 6
9 10 11 12 1 2 3 4 5 6 7 8
3 2 1 12 11 10 9 8 7 6 5 4
11 12 1 2 3 4 5 6 7 8 9 10
1 12 11 10 9 8 7 6 5 4 3 2
1 2 3 4 5 6 7 8 9 10 11 12
11 10 9 8 7 6 5 4 3 2 1 12
3 4 5 6 7 8 9 10 11 12 1 2
9 8 7 6 5 4 3 2 1 12 11 10
5 6 7 8 9 10 11 12 1 2 3 4

17
Kptng
JNaCFqujvcp
tknPWZohNZjNHbVYcNy
onmepYOtItUsFzdtb
ggJBHxssGLjY
lTpzITmRcnb
iCaz NRXTHGTCvs
VBO aX
DOkAXiKmTAb A A
pq
VajzDvv
LXnXkX
KT
NBCSI
GHBDrSaLvN UzsXgNa
zyWIPfBCAeJKVQuJVO
Am
1 2 3 4 5 6 7 8 9 10 11 12 13 14 15 16 17
16 15 14 13 12 11 10 9 8 7 6 5 4 3 2 1 17
3 4 5 6 7 8 9 10 11 12 13 14 15 16 17 1 2
14 13 12 11 10 9 8 7 6 5 4 3 2 1 17 16 15
5 6 7 8 9 10 11 12 13 14 15 16 17 1 2 3 4
12 11 10 9 8 7 6 5 4 3 2 1 17 16 15 14 13
7 8 9 10 11 12 13 14 15 16 17 1 2 3 4 5 6
10 9 8 7 6 5 4 3 2 1 17 16 15 14 13 12 11
9 10 11 12 13 14 15 16 17 1 2 3 4 5 6 7 8
8 7 6 5 4 3 2 1 17 16 15 14 13 12 11 10 9
11 12 13 14 15 16 17 1 2 3 4 5 6 7 8 9 10
6 5 4 3 2 1 17 16 15 14 13 12 11 10 9 8 7
13 14 15 16 17 1 2 3 4 5 6 7 8 9 10 11 12
4 3 2 1 17 16 15 14 13 12 11 10 9 8 7 6 5
15 16 17 1 2 3 4 5 6 7 8 9 10 11 12 13 14
2 1 17 16 15 14 13 12 11 10 9 8 7 6 5 4 3
17 1 2 3 4 5 6 7 8 9 10 11 12 13 14 15 16
17 16 15 14 13 12 11 10 9 8 7 6 5 4 3 2 1
2 3 4 5 6 7 8 9 10 11 12 13 14 15 16 17 1
15 14 13 12 11 10 9 8 7 6 5 4 3 2 1 17 16
4 5 6 7 8 9 10 11 12 13 14 15 16 17 1 2 3
13 12 11 10 9 8 7 6 5 4 3 2 1 17 16 15 14
6 7 8 9 10 11 12 13 14 15 16 17 1 2 3 4 5
11 10 9 8 7 6 5 4 3 2 1 17 16 15 14 13 12
8 9 10 11 12 13 14 15 16 17 1 2 3 4 5 6 7
9 8 7 6 5 4 3 2 1 17 16 15 14 13 12 11 10
10 11 12 13 14 15 16 17 1 2 3 4 5 6 7 8 9
7 6 5 4 3 2 1 17 16 15 14 13 12 11 10 9 8
12 13 14 15 16 17 1 2 3 4 5 6 7 8 9 10 11
5 4 3 2 1 17 16 15 14 13 12 11 10 9 8 7 6
14 15 16 17 1 2 3 4 5 6 7 8 9 10 11 12 13

8
FhvVJSpLinDbmTqKYLc
JutRRQQnXY
sWL
ByaOHdCngjIL
YvPgygLTgdl
wLXdDbUKmqnz
kHBa okwSuSjGPH
hmylxs
1 2 3 4 5 6 7 8
7 6 5 4 3 2 1 8
3 4 5 6 7 8 1 2
5 4 3 2 1 8 7 6
5 6 7 8 1 2 3 4
3 2 1 8 7 6 5 4
7 8 1 2 3 4 5 6
1 8 7 6 5 4 3 2
1 2 3 4 5 6 7 8
7 6 5 4 3 2 1 8
3 4 5 6 7 8 1 2
5 4 3 2 1 8 7 6
5 6 7 8 1 2 3 4
3 2 1 8 7 6 5 4
7 8 1 2 3 4 5 6
1 8 7 6 5 4 3 2
1 2 3 4 5 6 7 8
7 6 5 4 3 2 1 8
3 4 5 6 7 8 1 2
5 4 3 2 1 8 7 6
5 6 7 8 1 2 3 4
3 2 1 8 7 6 5 4
7 8 1 2 3 4 5 6
1 8 7 6 5 4 3 2
1 2 3 4 5 6 7 8
7 6 5 4 3 2 1 8
3 4 5 6 7 8 1 2
5 4 3 2 1 8 7 6
5 6 7 8 1 2 3 4
3 2 1 8 7 6 5 4
7 8 1 2 3 4 5 6
1 8 7 6 5 4 3 2
1 2 3 4 5 6 7 8
7 6 5 4 3 2 1 8
3 4 5 6 7 8 1 2
5 4 3 2 1 8 7 6
5 6 7 8 1 2 3 4
3 2 1 8 7 6 5 4
7 8 1 2 3 4 5 6
1 8 7 6 5 4 3 2

9
HCXwso
mGmKdmvAphQoe
Q
v
vHuNGFRTI
yylRIlbSL addGRgzfRg
vGlKvaIBsbAGJ
lLVBtMUA
IlbBFlHKTIfQK
1 2 3 4 5 6 7 8 9
8 7 6 5 4 3 2 1 9
3 4 5 6 7 8 9 1 2
6 5 4 3 2 1 9 8 7
5 6 7 8 9 1 2 3 4
4 3 2 1 9 8 7 6 5
7 8 9 1 2 3 4 5 6
2 1 9 8 7 6 5 4 3
9 1 2 3 4 5 6 7 8
9 8 7 6 5 4 3 2 1
2 3 4 5 6 7 8 9 1
7 6 5 4 3 2 1 9 8
4 5 6 7 8 9 1 2 3
5 4 3 2 1 9 8 7 6
6 7 8 9 1 2 3 4 5
3 2 1 9 8 7 6 5 4
8 9 1 2 3 4 5 6 7
1 9 8 7 6 5 4 3 2
1 2 3 4 5 6 7 8 9
8 7 6 5 4 3 2 1 9
3 4 5 6 7 8 9 1 2
6 5 4 3 2 1 9 8 7
5 6 7 8 9 1 2 3 4
4 3 2 1 9 8 7 6 5
7 8 9 1 2 3 4 5 6
2 1 9 8 7 6 5 4 3
9 1 2 3 4 5 6 7 8
9 8 7 6 5 4 3 2 1
2 3 4 5 6 7 8 9 1
7 6 5 4 3 2 1 9 8
4 5 6 7 8 9 1 2 3
5 4 3 2 1 9 8 7 6

8
jccGnEkkR
nala
hW i
kwjQZTE
h
Ay  PG
Cg
MdzeojYOsliBOJtCYMM
1 2 3 4 5 6 7 8
7 6 5 4 3 2 1 8
3 4 5 6 7 8 1 2
5 4 3 2 1 8 7 6
5 6 7 8 1 2 3 4
3 2 1 8 7 6 5 4
7 8 1 2 3 4 5 6
1 8 7 6 5 4 3 2
1 2 3 4 5 6 7 8
7 6 5 4 3 2 1 8
3 4 5 6 7 8 1 2
5 4 3 2 1 8 7 6
5 6 7 8 1 2 3 4
3 2 1 8 7 6 5 4
7 8 1 2 3 4 5 6
1 8 7 6 5 4 3 2
1 2 3 4 5 6 7 8
7 6 5 4 3 2 1 8
3 4 5 6 7 8 1 2
5 4 3 2 1 8 7 6
5 6 7 8 1 2 3 4
3 2 1 8 7 6 5 4
7 8 1 2 3 4 5 6
1 8 7 6 5 4 3 2
1 2 3 4 5 6 7 8
7 6 5 4 3 2 1 8
3 4 5 6 7 8 1 2
5 4 3 2 1 8 7 6
5 6 7 8 1 2 3 4
3 2 1 8 7 6 5 4
7 8 1 2 3 4 5 6
1 8 7 6 5 4 3 2
1 2 3 4 5 6 7 8
7 6 5 4 3 2 1 8
3 4 5 6 7 8 1 2
5 4 3 2 1 8 7 6
5 6 7 8 1 2 3 4
3 2 1 8 7 6 5 4
7 8 1 2 3 4 5 6
1 8 7 6 5 4 3 2

19
HkCzRiqoMAuZT
zvIMSPTbeysn
jEPfqXlXPtGcayqLiZ
dhw
JNcISJKAUnbKaurGWwZ
eDZaCBNJNPNtHd
gyLsrvmtQrzg
XPvJSoBqCowQdcTc
l
H
IT Z
nbGg
 bYJE
dCstWCyOTcEf
BHQRZApNjLqPHS
CbDiX
rrTrvvriJWGOZivPPY
anRKDILILDQtRRtwgxM
DmtP TOpfBWyx
1 2 3 4 5 6 7 8 9 10 11 12 13 14 15 16 17 18 19
18 17 16 15 14 13 12 11 10 9 8 7 6 5 4 3 2 1 19
3 4 5 6 7 8 9 10 11 12 13 14 15 16 17 18 19 1 2
16 15 14 13 12 11 10 9 8 7 6 5 4 3 2 1 19 18 17
5 6 7 8 9 10 11 12 13 14 15 16 17 18 19 1 2 3 4
14 13 12 11 10 9 8 7 6 5 4 3 2 1 19 18 17 16 15
7 8 9 10 11 12 13 14 15 16 17 18 19 1 2 3 4 5 6
12 11 10 9 8 7 6 5 4 3 2 1 19 18 17 16 15 14 13
9 10 11 12 13 14 15 16 17 18 19 1 2 3 4 5 6 7 8
10 9 8 7 6 5 4 3 2 1 19 18 17 16 15 14 13 12 11
11 12 13 14 15 16 17 18 19 1 2 3 4 5 6 7 8 9 10
8 7 6 5 4 3 2 1 19 18 17 16 15 14 13 12 11 10 9
13 14 15 16 17 18 19 1 2 3 4 5 6 7 8 9 10 11 12
6 5 4 3 2 1 19 18 17 16 15 14 13 12 11 10 9 8 7
15 16 17 18 19 1 2 3 4 5 6 7 8 9 10 11 12 13 14
4 3 2 1 19 18 17 16 15 14 13 12 11 10 9 8 7 6 5
17 18 19 1 2 3 4 5 6 7 8 9 10 11 12 13 14 15 16
2 1 19 18 17 16 15 14 13 12 11 10 9 8 7 6 5 4 3
19 1 2 3 4 5 6 7 8 9 10 11 12 13 14 15 16 17 18
19 18 17 16 15 14 13 12 11 10 9 8 7 6 5 4 3 2 1
2 3 4 5 6 7 8 9 10 11 12 13 14 15 16 17 18 19 1
17 16 15 14 13 12 11 10 9 8 7 6 5 4 3 2 1 19 18
4 5 6 7 8 9 10 11 12 13 14 15 16 17 18 19 1 2 3
15 14 13 12 11 10 9 8 7 6 5 4 3 2 1 19 18 17 16
6 7 8 9 10 11 12 13 14 15 16 17 18 19 1 2 3 4 5
13 12 11 10 9 8 7 6 5 4 3 2 1 19 18 17 16 15 14
8 9 10 11 12 13 14 15 16 17 18 19 1 2 3 4 5 6 7
11 10 9 8 7 6 5 4 3 2 1 19 18 17 16 15 14 13 12
10 11 12 13 14 15 16 17 18 19 1 2 3 4 5 6 7 8 9
9 8 7 6 5 4 3 2 1 19 18 17 16 15 14 13 12 11 10
12 13 14 15 16 17 18 19 1 2 3 4 5 6 7 8 9 10 11
7 6 5 4 3 2 1 19 18 17 16 15 14 13 12 11 10 9 8
14 15 16 17 18 19 1 2 3 4 5 6 7 8 9 10 11 12 13
5 4 3 2 1 19 18 17 16 15 14 13 12 11 10 9 8 7 6
16 17 18 19 1 2 3 4 5 6 7 8 9 10 11 12 13 14 15
3 2 1 19 18 17 16 15 14 13 12 11 10 9 8 7 6 5 4

18
kHbGIFSNWNGpWKMQknGj
BYCYDevMG
nRzfyQkpUFrBvkgGBH
QNF
TWRw
BB
BffHVJcdxLkJTulLR
eiMef TNTAJHwiJe
SIuxNiBC
oEHJOCzBVqafuh Kl
VYU qTeOdRNDuOY
UrclAHihNwCSpy
hAiYMYiKWTPoWqnHCoAy
zzDZoUTBMN
cPbgEGGnhiZi
ALosvXOsNvaerQJOJ
gAhVGlL
vZCYMCRIbMhKAmCtdE
1 2 3 4 5 6 7 8 9 10 11 12 13 14 15 16 17 18
17 16 15 14 13 12 11 10 9 8 7 6 5 4 3 2 1 18
3 4 5 6 7 8 9 10 11 12 13 14 15 16 17 18 1 2
15 14 13 12 11 10 9 8 7 6 5 4 3 2 1 18 17 16
5 6 7 8 9 10 11 12 13 14 15 16 17 18 1 2 3 4
13 12 11 10 9 8 7 6 5 4 3 2 1 18 17 16 15 14
7 8 9 10 11 12 13 14 15 16 17 18 1 2 3 4 5 6
11 10 9 8 7 6 5 4 3 2 1 18 17 16 15 14 13 12
9 10 11 12 13 14 15 16 17 18 1 2 3 4 5 6 7 8
9 8 7 6 5 4 3 2 1 18 17 16 15 14 13 12 11 10
11 12 13 14 15 16 17 18 1 2 3 4 5 6 7 8 9 10
7 6 5 4 3 2 1 18 17 16 15 14 13 12 11 10 9 8
13 14 15 16 17 18 1 2 3 4 5 6 7 8 9 10 11 12
5 4 3 2 1 18 17 16 15 14 13 12 11 10 9 8 7 6
15 16 17 18 1 2 3 4 5 6 7 8 9 10 11 12 13 14
3 2 1 18 17 16 15 14 13 12 11 10 9 8 7 6 5 4
17 18 1 2 3 4 5 6 7 8 9 10 11 12 13 14 15 16
1 18 17 16 15 14 13 12 11 10 9 8 7 6 5 4 3 2
1 2 3 4 5 6 7 8 9 10 11 12 13 14 15 16 17 18
17 16 15 14 13 12 11 10 9 8 7 6 5 4 3 2 1 18
3 4 5 6 7 8 9 10 11 12 13 14 15 16 17 18 1 2
15 14 13 12 11 10 9 8 7 6 5 4 3 2 1 18 17 16
5 6 7 8 9 10 11 12 13 14 15 16 17 18 1 2 3 4

7
AhPZqJyOP
UwmW
SdFGte EOXdwUSCpCAln
wSyqzeBYlLZN
UWVEjZbHBFqEDaxQqoCR
QNivMENbxRLgeG
bgJMDPmbdKRbCKUch
1 2 3 4 5 6 7
6 5 4 3 2 1 7
3 4 5 6 7 1 2
4 3 2 1 7 6 5
5 6 7 1 2 3 4
2 1 7 6 5 4 3
7 1 2 3 4 5 6
7 6 5 4 3 2 1
2 3 4 5 6 7 1
5 4 3 2 1 7 6
4 5 6 7 1 2 3
3 2 1 7 6 5 4
6 7 1 2 3 4 5
1 7 6 5 4 3 2
1 2 3 4 5 6 7
6 5 4 3 2 1 7
3 4 5 6 7 1 2
4 3 2 1 7 6 5
5 6 7 1 2 3 4
2 1 7 6 5 4 3
7 1 2 3 4 5 6
7 6 5 4 3 2 1
2 3 4 5 6 7 1
5 4 3 2 1 7 6
4 5 6 7 1 2 3
3 2 1 7 6 5 4
6 7 1 2 3 4 5

14
Azq
sfFpySCxsq Ddg
gNCRONCwckhFoIaha
BXzYlaDUAZo
Avt
TjjwXkq
dIfIzNOrgwAUGzfvmikx
nYcpEpoExeXaJ
NwK
ADgCvasLBgagWWSp
yNQeEiWEqPoFgvt
NBTQzJbcUCnZF
lcLjAJFwXGCrc
WxWrYuRGVe
1 2 3 4 5 6 7 8 9 10 11 12 13 14
13 12 11 10 9 8 7 6 5 4 3 2 1 14
3 4 5 6 7 8 9 10 11 12 13 14 1 2
11 10 9 8 7 6 5 4 3 2 1 14 13 12
5 6 7 8 9 10 11 12 13 14 1 2 3 4
9 8 7 6 5 4 3 2 1 14 13 12 11 10
7 8 9 10 11 12 13 14 1 2 3 4 5 6
7 6 5 4 3 2 1 14 13 12 11 10 9 8
9 10 11 12 13 14 1 2 3 4 5 6 7 8
5 4 3 2 1 14 13 12 11 10 9 8 7 6
11 12 13 14 1 2 3 4 5 6 7 8 9 10
3 2 1 14 13 12 11 10 9 8 7 6 5 4
13 14 1 2 3 4 5 6 7 8 9 10 11 12
1 14 13 12 11 10 9 8 7 6 5 4 3 2
1 2 3 4 5 6 7 8 9 10 11 12 13 14
13 12 11 10 9 8 7 6 5 4 3 2 1 14
3 4 5 6 7 8 9 10 11 12 13 14 1 2
11 10 9 8 7 6 5 4 3 2 1 14 13 12
5 6 7 8 9 10 11 12 13 14 1 2 3 4
9 8 7 6 5 4 3 2 1 14 13 12 11 10
7 8 9 10 11 12 13 14 1 2 3 4 5 6
7 6 5 4 3 2 1 14 13 12 11 10 9 8
9 10 11 12 13 14 1 2 3 4 5 6 7 8
5 4 3 2 1 14 13 12 11 10 9 8 7 6
11 12 13 14 1 2 3 4 5 6 7 8 9 10
3 2 1 14 13 12 11 10 9 8 7 6 5 4
13 14 1 2 3 4 5 6 7 8 9 10 11 12
1 14 13 12 11 10 9 8 7 6 5 4 3 2
1 2 3 4 5 6 7 8 9 10 11 12 13 14
13 12 11 10 9 8 7 6 5 4 3 2 1 14
3 4 5 6 7 8 9 10 11 12 13 14 1 2
11 10 9 8 7 6 5 4 3 2 1 14 13 12
5 6 7 8 9 10 11 12 13 14 1 2 3 4
9 8 7 6 5 4 3 2 1 14 13 12 11 10

10
yFzDfkALuNqmRlgNvZlH
LWr
pUuJsdZim
QdzlgarzYTvLPqra
bUaUO
oHsCqcVucwxjDfPrtSM
lKfWZuDrTABYQ
zGhbLQJ
EMHytxhbFrJ
MsrFVzpFrsooj
1 2 3 4 5 6 7 8 9 10
9 8 7 6 5 4 3 2 1 10
3 4 5 6 7 8 9 10 1 2
7 6 5 4 3 2 1 10 9 8
5 6 7 8 9 10 1 2 3 4
5 4 3 2 1 10 9 8 7 6
7 8 9 10 1 2 3 4 5 6
3 2 1 10 9 8 7 6 5 4
9 10 1 2 3 4 5 6 7 8
1 10 9 8 7 6 5 4 3 2
1 2 3 4 5 6 7 8 9 10
9 8 7 6 5 4 3 2 1 10
3 4 5 6 7 8 9 10 1 2
7 6 5 4 3 2 1 10 9 8
5 6 7 8 9 10 1 2 3 4
5 4 3 2 1 10 9 8 7 6
7 8 9 10 1 2 3 4 5 6
3 2 1 10 9 8 7 6 5 4
9 10 1 2 3 4 5 6 7 8
1 10 9 8 7 6 5 4 3 2
1 2 3 4 5 6 7 8 9 10
9 8 7 6 5 4 3 2 1 10
3 4 5 6 7 8 9 10 1 2
7 6 5 4 3 2 1 10 9 8

3
yRKMofLlwwqciY
BjoLcaochi
I dGGZfjVOQtwthCLwjA
1 2 3
2 1 3
3 1 2
3 2 1
2 3 1
1 3 2
1 2 3
2 1 3
3 1 2
3 2 1
2 3 1
1 3 2
1 2 3
2 1 3
3 1 2
3 2 1
2 3 1
1 3 2
1 2 3
2 1 3
3 1 2
3 2 1
2 3 1
1 3 2
1 2 3
2 1 3
3 1 2
3 2 1
2 3 1
1 3 2
1 2 3
2 1 3
3 1 2
3 2 1
2 3 1
1 3 2
1 2 3
2 1 3

19
WtObtwV
nnIgWrNBwWV
YdMXVAAKRpiCuBBP F
xCnYWQGilqTsWN
GHXFXsOWdmi gHm
DZomilMiET
gCzcAJTiehrMWeR JXO
jPnH
HCJXJALMCdKNbKIisIkc
VMYsQooAUXr
QayIljnnWHOcidon
CmCobKxdsChFx
zEUXToFMtYDgdP
zQkagQzStezRJikcB
CVsbFW
RuLmoRcBTZbIVcT
sNjtqAirKuTZre
faNZVvYrCRbGOmfWkGY
JA
1 2 3 4 5 6 7 8 9 10 11 12 13 14 15 16 17 18 19
18 17 16 15 14 13 12 11 10 9 8 7 6 5 4 3 2 1 19
3 4 5 6 7 8 9 10 11 12 13 14 15 16 17 18 19 1 2
16 15 14 13 12 11 10 9 8 7 6 5 4 3 2 1 19 18 17
5 6 7 8 9 10 11 12 13 14 15 16 17 18 19 1 2 3 4
14 13 12 11 10 9 8 7 6 5 4 3 2 1 19 18 17 16 15
7 8 9 10 11 12 13 14 15 16 17 18 19 1 2 3 4 5 6
12 11 10 9 8 7 6 5 4 3 2 1 19 18 17 16 15 14 13
9 10 11 12 13 14 15 16 17 18 19 1 2 3 4 5 6 7 8
10 9 8 7 6 5 4 3 2 1 19 18 17 16 15 14 13 12 11
11 12 13 14 15 16 17 18 19 1 2 3 4 5 6 7 8 9 10
8 7 6 5 4 3 2 1 19 18 17 16 15 14 13 12 11 10 9
13 14 15 16 17 18 19 1 2 3 4 5 6 7 8 9 10 11 12
6 5 4 3 2 1 19 18 17 16 15 14 13 12 11 10 9 8 7
15 16 17 18 19 1 2 3 4 5 6 7 8 9 10 11 12 13 14
4 3 2 1 19 18 17 16 15 14 13 12 11 10 9 8 7 6 5
17 18 19 1 2 3 4 5 6 7 8 9 10 11 12 13 14 15 16
2 1 19 18 17 16 15 14 13 12 11 10 9 8 7 6 5 4 3
19 1 2 3 4 5 6 7 8 9 10 11 12 13 14 15 16 17 18
19 18 17 16 15 14 13 12 11 10 9 8 7 6 5 4 3 2 1
2 3 4 5 6 7 8 9 10 11 12 13 14 15 16 17 18 19 1
17 16 15 14 13 12 11 10 9 8 7 6 5 4 3 2 1 19 18
4 5 6 7 8 9 10 11 12 13 14 15 16 17 18 19 1 2 3
15 14 13 12 11 10 9 8 7 6 5 4 3 2 1 19 18 17 16
6 7 8 9 10 11 12 13 14 15 16 17 18 19 1 2 3 4 5
13 12 11 10 9 8 7 6 5 4 3 2 1 19 18 17 16 15 14
8 9 10 11 12 13 14 15 16 17 18 19 1 2 3 4 5 6 7
11 10 9 8 7 6 5 4 3 2 1 19 18 17 16 15 14 13 12
10 11 12 13 14 15 16 17 18 19 1 2 3 4 5 6 7 8 9
9 8 7 6 5 4 3 2 1 19 18 17 16 15 14 13 12 11 10
12 13 14 15 16 17 18 19 1 2 3 4 5 6 7 8 9 10 11
7 6 5 4 3 2 1 19 18 17 16 15 14 13 12 11 10 9 8
14 15 16 17 18 19 1 2 3 4 5 6 7 8 9 10 11 12 13
5 4 3 2 1 19 18 17 16 15 14 13 12 11 10 9 8 7 6
16 17 18 19 1 2 3 4 5 6 7 8 9 10 11 12 13 14 15
3 2 1 19 18 17 16 15 14 13 12 11 10 9 8 7 6 5 4

5
wKhSxYKi
JVOmhmdzxxSryxL 
DDo
ixWcCtC
aXOq
1 2 3 4 5
4 3 2 1 5
3 4 5 1 2
2 1 5 4 3
5 1 2 3 4
5 4 3 2 1
2 3 4 5 1
3 2 1 5 4
4 5 1 2 3
1 5 4 3 2
1 2 3 4 5
4 3 2 1 5
3 4 5 1 2
2 1 5 4 3
5 1 2 3 4
5 4 3 2 1
2 3 4 5 1
3 2 1 5 4
4 5 1 2 3
1 5 4 3 2
1 2 3 4 5
4 3 2 1 5

13
xntgfZIMX
iCQT
EKfBLymWOdmJWJ
BtTeoJsFOi
mhnyZiUaZyTHJPOQfAen
eHCTQTFuKKCz
ukmybKtYMrjbR kkne
BrXmWasMBhHjwsH
ll BaPlijRqcte
nglgtKZqEMqAWRNSrD
bRmsqehsfI
RHEZtsSQPLettX
kn
1 2 3 4 5 6 7 8 9 10 11 12 13
12 11 10 9 8 7 6 5 4 3 2 1 13
3 4 5 6 7 8 9 10 11 12 13 1 2
10 9 8 7 6 5 4 3 2 1 13 12 11
5 6 7 8 9 10 11 12 13 1 2 3 4
8 7 6 5 4 3 2 1 13 12 11 10 9
7 8 9 10 11 12 13 1 2 3 4 5 6
6 5 4 3 2 1 13 12 11 10 9 8 7
9 10 11 12 13 1 2 3 4 5 6 7 8
4 3 2 1 13 12 11 10 9 8 7 6 5
11 12 13 1 2 3 4 5 6 7 8 9 10
2 1 13 12 11 10 9 8 7 6 5 4 3
13 1 2 3 4 5 6 7 8 9 10 11 12
13 12 11 10 9 8 7 6 5 4 3 2 1
2 3 4 5 6 7 8 9 10 11 12 13 1
11 10 9 8 7 6 5 4 3 2 1 13 12
4 5 6 7 8 9 10 11 12 13 1 2 3
9 8 7 6 5 4 3 2 1 13 12 11 10
6 7 8 9 10 11 12 13 1 2 3 4 5
7 6 5 4 3 2 1 13 12 11 10 9 8
8 9 10 11 12 13 1 2 3 4 5 6 7

7
efHVgKP
MRTfn
Nz
wPShdLdwuDBmGcjqk
A
aqWA
edwoeKX
1 2 3 4 5 6 7
6 5 4 3 2 1 7
3 4 5 6 7 1 2
4 3 2 1 7 6 5
5 6 7 1 2 3 4
2 1 7 6 5 4 3
7 1 2 3 4 5 6
7 6 5 4 3 2 1
2 3 4 5 6 7 1
5 4 3 2 1 7 6
4 5 6 7 1 2 3
3 2 1 7 6 5 4
6 7 1 2 3 4 5
1 7 6 5 4 3 2
1 2 3 4 5 6 7
6 5 4 3 2 1 7
3 4 5 6 7 1 2
4 3 2 1 7 6 5
5 6 7 1 2 3 4
2 1 7 6 5 4 3
7 1 2 3 4 5 6
7 6 5 4 3 2 1
2 3 4 5 6 7 1
5 4 3 2 1 7 6
4 5 6 7 1 2 3
3 2 1 7 6 5 4
6 7 1 2 3 4 5

15
ZG
NeY
SJbd
WX
ZuswCvdY mbeZO
Qn
tIamCl CIUWOJHQPjtu
RBLqiUuAJvILArze
baFcTfe jrXXRLawqRT
D
pqrmBTuLcgOPdPJka
Ub
rgrnkOUEuWsBg
tPGIhykIl
 IVLTGIxlSRiCmtZaxf
1 2 3 4 5 6 7 8 9 10 11 12 13 14 15
14 13 12 11 10 9 8 7 6 5 4 3 2 1 15
3 4 5 6 7 8 9 10 11 12 13 14 15 1 2
12 11 10 9 8 7 6 5 4 3 2 1 15 14 13
5 6 7 8 9 10 11 12 13 14 15 1 2 3 4
10 9 8 7 6 5 4 3 2 1 15 14 13 12 11
7 8 9 10 11 12 13 14 15 1 2 3 4 5 6
8 7 6 5 4 3 2 1 15 14 13 12 11 10 9
9 10 11 12 13 14 15 1 2 3 4 5 6 7 8
6 5 4 3 2 1 15 14 13 12 11 10 9 8 7
11 12 13 14 15 1 2 3 4 5 6 7 8 9 10
4 3 2 1 15 14 13 12 11 10 9 8 7 6 5
13 14 15 1 2 3 4 5 6 7 8 9 10 11 12
2 1 15 14 13 12 11 10 9 8 7 6 5 4 3
15 1 2 3 4 5 6 7 8 9 10 11 12 13 14
15 14 13 12 11 10 9 8 7 6 5 4 3 2 1
2 3 4 5 6 7 8 9 10 11 12 13 14 15 1
13 12 11 10 9 8 7 6 5 4 3 2 1 15 14
4 5 6 7 8 9 10 11 12 13 14 15 1 2 3
11 10 9 8 7 6 5 4 3 2 1 15 14 13 12
6 7 8 9 10 11 12 13 14 15 1 2 3 4 5
9 8 7 6 5 4 3 2 1 15 14 13 12 11 10
8 9 10 11 12 13 14 15 1 2 3 4 5 6 7
7 6 5 4 3 2 1 15 14 13 12 11 10 9 8
10 11 12 13 14 15 1 2 3 4 5 6 7 8 9
5 4 3 2 1 15 14 13 12 11 10 9 8 7 6

13
tHlDStKHDlm
viPwICrDzoO
KRDOMEhsl
kzBMGPnaUAmLYuaAwGlR
QLrUZofKOILyvW
jsMm 
DFFAfW
GKJaVXYF  QzGy
zMojPM
awjUSgPTDKcmScJVxMw
DBLXCTdWyR 
vKMPkymulLsqn
 IhLwQTsrXs 
1 2 3 4 5 6 7 8 9 10 11 12 13
12 11 10 9 8 7 6 5 4 3 2 1 13
3 4 5 6 7 8 9 10 11 12 13 1 2
10 9 8 7 6 5 4 3 2 1 13 12 11
5 6 7 8 9 10 11 12 13 1 2 3 4
8 7 6 5 4 3 2 1 13 12 11 10 9
7 8 9 10 11 12 13 1 2 3 4 5 6
6 5 4 3 2 1 13 12 11 10 9 8 7
9 10 11 12 13 1 2 3 4 5 6 7 8
4 3 2 1 13 12 11 10 9 8 7 6 5
11 12 13 1 2 3 4 5 6 7 8 9 10
2 1 13 12 11 10 9 8 7 6 5 4 3
13 1 2 3 4 5 6 7 8 9 10 11 12
13 12 11 10 9 8 7 6 5 4 3 2 1
2 3 4 5 6 7 8 9 10 11 12 13 1
11 10 9 8 7 6 5 4 3 2 1 13 12
4 5 6 7 8 9 10 11 12 13 1 2 3
9 8 7 6 5 4 3 2 1 13 12 11 10
6 7 8 9 10 11 12 13 1 2 3 4 5
7 6 5 4 3 2 1 13 12 11 10 9 8
8 9 10 11 12 13 1 2 3 4 5 6 7

11
FnfWGgOBRBr
UmvLZqscjVYq
hdQGkXPDBuFAm OAb
smHgewdJdn
YkvueWyzlWnMmFaubixQ
W HHCzbToIhEVd
Ltw
JSXDBGtWHqcUUS
zYdzMgsHwwWPOwTZTRth
PvlRgnVELJTUdYCYwnd
kwGKnllITr
1 2 3 4 5 6 7 8 9 10 11
10 9 8 7 6 5 4 3 2 1 11
3 4 5 6 7 8 9 10 11 1 2
8 7 6 5 4 3 2 1 11 10 9
5 6 7 8 9 10 11 1 2 3 4
6 5 4 3 2 1 11 10 9 8 7
7 8 9 10 11 1 2 3 4 5 6
4 3 2 1 11 10 9 8 7 6 5
9 10 11 1 2 3 4 5 6 7 8
2 1 11 10 9 8 7 6 5 4 3
11 1 2 3 4 5 6 7 8 9 10
11 10 9 8 7 6 5 4 3 2 1
2 3 4 5 6 7 8 9 10 11 1
9 8 7 6 5 4 3 2 1 11 10
4 5 6 7 8 9 10 11 1 2 3
7 6 5 4 3 2 1 11 10 9 8
6 7 8 9 10 11 1 2 3 4 5
5 4 3 2 1 11 10 9 8 7 6
8 9 10 11 1 2 3 4 5 6 7
3 2 1 11 10 9 8 7 6 5 4
10 11 1 2 3 4 5 6 7 8 9
1 11 10 9 8 7 6 5 4 3 2
1 2 3 4 5 6 7 8 9 10 11
10 9 8 7 6 5 4 3 2 1 11
3 4 5 6 7 8 9 10 11 1 2
8 7 6 5 4 3 2 1 11 10 9
5 6 7 8 9 10 11 1 2 3 4
6 5 4 3 2 1 11 10 9 8 7
7 8 9 10 11 1 2 3 4 5 6
4 3 2 1 11 10 9 8 7 6 5
9 10 11 1 2 3 4 5 6 7 8
2 1 11 10 9 8 7 6 5 4 3
11 1 2 3 4 5 6 7 8 9 10
11 10 9 8 7 6 5 4 3 2 1
2 3 4 5 6 7 8 9 10 11 1
9 8 7 6 5 4 3 2 1 11 10
4 5 6 7 8 9 10 11 1 2 3

19
VrKjISjxk
UqMpFZrFkScDOfuw
BKxPEKYpapySHetYQUP
BuslChsKRYpC
iPpmeqPMbTUx
ai
AFdEnUragFaexSsqbnM
UNRmP
Bb
RJD iLh IBGB
DRGWNHvpLwKPYTb
XwwskuTAP
IwgVvVnqNjD
NoeEHZ
DQeQCqiHLq
qPJkfoefbV 
GcyhCO
dtPjSVOJxcMxioG
gasYVC
1 2 3 4 5 6 7 8 9 10 11 12 13 14 15 16 17 18 19
18 17 16 15 14 13 12 11 10 9 8 7 6 5 4 3 2 1 19
3 4 5 6 7 8 9 10 11 12 13 14 15 16 17 18 19 1 2
16 15 14 13 12 11 10 9 8 7 6 5 4 3 2 1 19 18 17
5 6 7 8 9 10 11 12 13 14 15 16 17 18 19 1 2 3 4
14 13 12 11 10 9 8 7 6 5 4 3 2 1 19 18 17 16 15
7 8 9 10 11 12 13 14 15 16 17 18 19 1 2 3 4 5 6
12 11 10 9 8 7 6 5 4 3 2 1 19 18 17 16 15 14 13
9 10 11 12 13 14 15 16 17 18 19 1 2 3 4 5 6 7 8
10 9 8 7 6 5 4 3 2 1 19 18 17 16 15 14 13 12 11
11 12 13 14 15 16 17 18 19 1 2 3 4 5 6 7 8 9 10
8 7 6 5 4 3 2 1 19 18 17 16 15 14 13 12 11 10 9
13 14 15 16 17 18 19 1 2 3 4 5 6 7 8 9 10 11 12
6 5 4 3 2 1 19 18 17 16 15 14 13 12 11 10 9 8 7
15 16 17 18 19 1 2 3 4 5 6 7 8 9 10 11 12 13 14
4 3 2 1 19 18 17 16 15 14 13 12 11 10 9 8 7 6 5
17 18 19 1 2 3 4 5 6 7 8 9 10 11 12 13 14 15 16
2 1 19 18 17 16 15 14 13 12 11 10 9 8 7 6 5 4 3
19 1 2 3 4 5 6 7 8 9 10 11 12 13 14 15 16 17 18
19 18 17 16 15 14 13 12 11 10 9 8 7 6 5 4 3 2 1
2 3 4 5 6 7 8 9 10 11 12 13 14 15 16 17 18 19 1
17 16 15 14 13 12 11 10 9 8 7 6 5 4 3 2 1 19 18
4 5 6 7 8 9 10 11 12 13 14 15 16 17 18 19 1 2 3
15 14 13 12 11 10 9 8 7 6 5 4 3 2 1 19 18 17 16
6 7 8 9 10 11 12 13 14 15 16 17 18 19 1 2 3 4 5
13 12 11 10 9 8 7 6 5 4 3 2 1 19 18 17 16 15 14
8 9 10 11 12 13 14 15 16 17 18 19 1 2 3 4 5 6 7
11 10 9 8 7 6 5 4 3 2 1 19 18 17 16 15 14 13 12
10 11 12 13 14 15 16 17 18 19 1 2 3 4 5 6 7 8 9
9 8 7 6 5 4 3 2 1 19 18 17 16 15 14 13 12 11 10
12 13 14 15 16 17 18 19 1 2 3 4 5 6 7 8 9 10 11
7 6 5 4 3 2 1 19 18 17 16 15 14 13 12 11 10 9 8
14 15 16 17 18 19 1 2 3 4 5 6 7 8 9 10 11 12 13
5 4 3 2 1 19 18 17 16 15 14 13 12 11 10 9 8 7 6
16 17 18 19 1 2 3 4 5 6 7 8 9 10 11 12 13 14 15
3 2 1 19 18 17 16 15 14 13 12 11 10 9 8 7 6 5 4

3
gZv
ZqXlvYynGcDJIHgOZH
ivYP
1 2 3
2 1 3
3 1 2
3 2 1
2 3 1
1 3 2
1 2 3
2 1 3
3 1 2
3 2 1
2 3 1
1 3 2
1 2 3
2 1 3
3 1 2
3 2 1
2 3 1
1 3 2
1 2 3
2 1 3
3 1 2
3 2 1
2 3 1
1 3 2
1 2 3
2 1 3
3 1 2
3 2 1
2 3 1
1 3 2
1 2 3
2 1 3
3 1 2
3 2 1
2 3 1
1 3 2
1 2 3
2 1 3

9
LZb
NHoNZMKcQ VLArVs
TXCRjBAyEDOzwNAc
tSWkjctRXDSpHmx
mIsbsjQljw
Ycgt
LRintYBXudOC
O SmL
UTBWkTEMVCE
1 2 3 4 5 6 7 8 9
8 7 6 5 4 3 2 1 9
3 4 5 6 7 8 9 1 2
6 5 4 3 2 1 9 8 7
5 6 7 8 9 1 2 3 4
4 3 2 1 9 8 7 6 5
7 8 9 1 2 3 4 5 6
2 1 9 8 7 6 5 4 3
9 1 2 3 4 5 6 7 8
9 8 7 6 5 4 3 2 1
2 3 4 5 6 7 8 9 1
7 6 5 4 3 2 1 9 8
4 5 6 7 8 9 1 2 3
5 4 3 2 1 9 8 7 6
6 7 8 9 1 2 3 4 5
3 2 1 9 8 7 6 5 4
8 9 1 2 3 4 5 6 7
1 9 8 7 6 5 4 3 2
1 2 3 4 5 6 7 8 9
8 7 6 5 4 3 2 1 9
3 4 5 6 7 8 9 1 2
6 5 4 3 2 1 9 8 7
5 6 7 8 9 1 2 3 4
4 3 2 1 9 8 7 6 5
7 8 9 1 2 3 4 5 6
2 1 9 8 7 6 5 4 3
9 1 2 3 4 5 6 7 8
9 8 7 6 5 4 3 2 1
2 3 4 5 6 7 8 9 1
7 6 5 4 3 2 1 9 8
4 5 6 7 8 9 1 2 3
5 4 3 2 1 9 8 7 6

17
EL
 K InssfwNVqq
f
ltzXmsCCJTuMJ 
euEYAI
iqNzG
EJxlBamUjWxR
kSkqor
FjrvnxYBFYKumFPAkAo
JWQFzfeyv
AtZohPAq
zla AKkZiD
kPHNMaAYmPuORuf
KdChRebSPGhTCQz
UPSNfkwvjHbVnjgzCDuN
vbo 
NHmDypRDLoPqp
1 2 3 4 5 6 7 8 9 10 11 12 13 14 15 16 17
16 15 14 13 12 11 10 9 8 7 6 5 4 3 2 1 17
3 4 5 6 7 8 9 10 11 12 13 14 15 16 17 1 2
14 13 12 11 10 9 8 7 6 5 4 3 2 1 17 16 15
5 6 7 8 9 10 11 12 13 14 15 16 17 1 2 3 4
12 11 10 9 8 7 6 5 4 3 2 1 17 16 15 14 13
7 8 9 10 11 12 13 14 15 16 17 1 2 3 4 5 6
10 9 8 7 6 5 4 3 2 1 17 16 15 14 13 12 11
9 10 11 12 13 14 15 16 17 1 2 3 4 5 6 7 8
8 7 6 5 4 3 2 1 17 16 15 14 13 12 11 10 9
11 12 13 14 15 16 17 1 2 3 4 5 6 7 8 9 10
6 5 4 3 2 1 17 16 15 14 13 12 11 10 9 8 7
13 14 15 16 17 1 2 3 4 5 6 7 8 9 10 11 12
4 3 2 1 17 16 15 14 13 12 11 10 9 8 7 6 5
15 16 17 1 2 3 4 5 6 7 8 9 10 11 12 13 14
2 1 17 16 15 14 13 12 11 10 9 8 7 6 5 4 3
17 1 2 3 4 5 6 7 8 9 10 11 12 13 14 15 16
17 16 15 14 13 12 11 10 9 8 7 6 5 4 3 2 1
2 3 4 5 6 7 8 9 10 11 12 13 14 15 16 17 1
15 14 13 12 11 10 9 8 7 6 5 4 3 2 1 17 16
4 5 6 7 8 9 10 11 12 13 14 15 16 17 1 2 3
13 12 11 10 9 8 7 6 5 4 3 2 1 17 16 15 14
6 7 8 9 10 11 12 13 14 15 16 17 1 2 3 4 5
11 10 9 8 7 6 5 4 3 2 1 17 16 15 14 13 12
8 9 10 11 12 13 14 15 16 17 1 2 3 4 5 6 7
9 8 7 6 5 4 3 2 1 17 16 15 14 13 12 11 10
10 11 12 13 14 15 16 17 1 2 3 4 5 6 7 8 9
7 6 5 4 3 2 1 17 16 15 14 13 12 11 10 9 8
12 13 14 15 16 17 1 2 3 4 5 6 7 8 9 10 11
5 4 3 2 1 17 16 15 14 13 12 11 10 9 8 7 6
14 15 16 17 1 2 3 4 5 6 7 8 9 10 11 12 13

3
yKpkkGJkKJuMHtY
xL
wPcAk
1 2 3
2 1 3
3 1 2
3 2 1
2 3 1
1 3 2
1 2 3
2 1 3
3 1 2
3 2 1
2 3 1
1 3 2
1 2 3
2 1 3
3 1 2
3 2 1
2 3 1
1 3 2
1 2 3
2 1 3
3 1 2
3 2 1
2 3 1
1 3 2
1 2 3
2 1 3
3 1 2
3 2 1
2 3 1
1 3 2
1 2 3
2 1 3
3 1 2
3 2 1
2 3 1
1 3 2
1 2 3
2 1 3

6
mQAfCBPDuOdPoya
ZvtgyCgDq
JtCIwybOxrZuZeltO
ePxmjw
qIwDEXV
TMRcbKfyvBH
1 2 3 4 5 6
5 4 3 2 1 6
3 4 5 6 1 2
3 2 1 6 5 4
5 6 1 2 3 4
1 6 5 4 3 2
1 2 3 4 5 6
5 4 3 2 1 6
3 4 5 6 1 2
3 2 1 6 5 4
5 6 1 2 3 4
1 6 5 4 3 2
1 2 3 4 5 6
5 4 3 2 1 6
3 4 5 6 1 2
3 2 1 6 5 4
5 6 1 2 3 4
1 6 5 4 3 2
1 2 3 4 5 6
5 4 3 2 1 6
3 4 5 6 1 2
3 2 1 6 5 4
5 6 1 2 3 4
1 6 5 4 3 2
1 2 3 4 5 6
5 4 3 2 1 6
3 4 5 6 1 2
3 2 1 6 5 4
5 6 1 2 3 4
1 6 5 4 3 2
1 2 3 4 5 6
5 4 3 2 1 6
3 4 5 6 1 2
3 2 1 6 5 4
5 6 1 2 3 4

15
W
jwyzAEGwInxuPyXn
UCyADgkybI
VlmfpGDuQOIpO
WlYCB
wslLUXmYAALr
cRnGuTqJIKIUfR
kEsdezVK
iWbvFgQJACNKKEpWX
WScLew
 ThKxMr 
 HbziaeG
OBQIrgYuXebgvrnB
UmZNjQAUmw
YXNlwwexWtQZ
1 2 3 4 5 6 7 8 9 10 11 12 13 14 15
14 13 12 11 10 9 8 7 6 5 4 3 2 1 15
3 4 5 6 7 8 9 10 11 12 13 14 15 1 2
12 11 10 9 8 7 6 5 4 3 2 1 15 14 13
5 6 7 8 9 10 11 12 13 14 15 1 2 3 4
10 9 8 7 6 5 4 3 2 1 15 14 13 12 11
7 8 9 10 11 12 13 14 15 1 2 3 4 5 6
8 7 6 5 4 3 2 1 15 14 13 12 11 10 9
9 10 11 12 13 14 15 1 2 3 4 5 6 7 8
6 5 4 3 2 1 15 14 13 12 11 10 9 8 7
11 12 13 14 15 1 2 3 4 5 6 7 8 9 10
4 3 2 1 15 14 13 12 11 10 9 8 7 6 5
13 14 15 1 2 3 4 5 6 7 8 9 10 11 12
2 1 15 14 13 12 11 10 9 8 7 6 5 4 3
15 1 2 3 4 5 6 7 8 9 10 11 12 13 14
15 14 13 12 11 10 9 8 7 6 5 4 3 2 1
2 3 4 5 6 7 8 9 10 11 12 13 14 15 1
13 12 11 10 9 8 7 6 5 4 3 2 1 15 14
4 5 6 7 8 9 10 11 12 13 14 15 1 2 3
11 10 9 8 7 6 5 4 3 2 1 15 14 13 12
6 7 8 9 10 11 12 13 14 15 1 2 3 4 5
9 8 7 6 5 4 3 2 1 15 14 13 12 11 10
8 9 10 11 12 13 14 15 1 2 3 4 5 6 7
7 6 5 4 3 2 1 15 14 13 12 11 10 9 8
10 11 12 13 14 15 1 2 3 4 5 6 7 8 9
5 4 3 2 1 15 14 13 12 11 10 9 8 7 6

19
RbEN
G
qMnF t
prIyqAnZMJTdavnxyvLg
GGdc
 GxNtkiG
RcR
HdrNxaFekp
Nyv
SfdxYqlH
WbcIawyKJkRLa
cLcQoILUxif
bwKuzRXPDKgDIPkV
XlXUhF
vqvTtdAhnCgAlx Eb
YyClfCoWSPxgSkTeAUQ
t
wRDZQArKBz
rcvgUPlTPu
1 2 3 4 5 6 7 8 9 10 11 12 13 14 15 16 17 18 19
18 17 16 15 14 13 12 11 10 9 8 7 6 5 4 3 2 1 19
3 4 5 6 7 8 9 10 11 12 13 14 15 16 17 18 19 1 2
16 15 14 13 12 11 10 9 8 7 6 5 4 3 2 1 19 18 17
5 6 7 8 9 10 11 12 13 14 15 16 17 18 19 1 2 3 4
14 13 12 11 10 9 8 7 6 5 4 3 2 1 19 18 17 16 15
7 8 9 10 11 12 13 14 15 16 17 18 19 1 2 3 4 5 6
12 11 10 9 8 7 6 5 4 3 2 1 19 18 17 16 15 14 13
9 10 11 12 13 14 15 16 17 18 19 1 2 3 4 5 6 7 8
10 9 8 7 6 5 4 3 2 1 19 18 17 16 15 14 13 12 11
11 12 13 14 15 16 17 18 19 1 2 3 4 5 6 7 8 9 10
8 7 6 5 4 3 2 1 19 18 17 16 15 14 13 12 11 10 9
13 14 15 16 17 18 19 1 2 3 4 5 6 7 8 9 10 11 12
6 5 4 3 2 1 19 18 17 16 15 14 13 12 11 10 9 8 7
15 16 17 18 19 1 2 3 4 5 6 7 8 9 10 11 12 13 14
4 3 2 1 19 18 17 16 15 14 13 12 11 10 9 8 7 6 5
17 18 19 1 2 3 4 5 6 7 8 9 10 11 12 13 14 15 16
2 1 19 18 17 16 15 14 13 12 11 10 9 8 7 6 5 4 3
19 1 2 3 4 5 6 7 8 9 10 11 12 13 14 15 16 17 18
19 18 17 16 15 14 13 12 11 10 9 8 7 6 5 4 3 2 1
2 3 4 5 6 7 8 9 10 11 12 13 14 15 16 17 18 19 1
17 16 15 14 13 12 11 10 9 8 7 6 5 4 3 2 1 19 18
4 5 6 7 8 9 10 11 12 13 14 15 16 17 18 19 1 2 3
15 14 13 12 11 10 9 8 7 6 5 4 3 2 1 19 18 17 16
6 7 8 9 10 11 12 13 14 15 16 17 18 19 1 2 3 4 5
13 12 11 10 9 8 7 6 5 4 3 2 1 19 18 17 16 15 14
8 9 10 11 12 13 14 15 16 17 18 19 1 2 3 4 5 6 7
11 10 9 8 7 6 5 4 3 2 1 19 18 17 16 15 14 13 12
10 11 12 13 14 15 16 17 18 19 1 2 3 4 5 6 7 8 9
9 8 7 6 5 4 3 2 1 19 18 17 16 15 14 13 12 11 10
12 13 14 15 16 17 18 19 1 2 3 4 5 6 7 8 9 10 11
7 6 5 4 3 2 1 19 18 17 16 15 14 13 12 11 10 9 8
14 15 16 17 18 19 1 2 3 4 5 6 7 8 9 10 11 12 13
5 4 3 2 1 19 18 17 16 15 14 13 12 11 10 9 8 7 6
16 17 18 19 1 2 3 4 5 6 7 8 9 10 11 12 13 14 15
3 2 1 19 18 17 16 15 14 13 12 11 10 9 8 7 6 5 4

16
o
OUZcVAlxChFZheoqc
goHo
tuNTnTBj NKHwewpBhy
ULDrotFlyQqw fBAS
ioneTew
KbmkSmVaPWFC
YEvyleOrLFAYISJn
Ox
KTvvSEtQeErrgKm
hnvY
ooh
oGMkhNrrCXdxoGyM o
xQ YWrKLCM
DC
BnHKzochis
1 2 3 4 5 6 7 8 9 10 11 12 13 14 15 16
15 14 13 12 11 10 9 8 7 6 5 4 3 2 1 16
3 4 5 6 7 8 9 10 11 12 13 14 15 16 1 2
13 12 11 10 9 8 7 6 5 4 3 2 1 16 15 14
5 6 7 8 9 10 11 12 13 14 15 16 1 2 3 4
11 10 9 8 7 6 5 4 3 2 1 16 15 14 13 12
7 8 9 10 11 12 13 14 15 16 1 2 3 4 5 6
9 8 7 6 5 4 3 2 1 16 15 14 13 12 11 10
9 10 11 12 13 14 15 16 1 2 3 4 5 6 7 8
7 6 5 4 3 2 1 16 15 14 13 12 11 10 9 8
11 12 13 14 15 16 1 2 3 4 5 6 7 8 9 10
5 4 3 2 1 16 15 14 13 12 11 10 9 8 7 6
13 14 15 16 1 2 3 4 5 6 7 8 9 10 11 12
3 2 1 16 15 14 13 12 11 10 9 8 7 6 5 4
15 16 1 2 3 4 5 6 7 8 9 10 11 12 13 14
1 16 15 14 13 12 11 10 9 8 7 6 5 4 3 2
1 2 3 4 5 6 7 8 9 10 11 12 13 14 15 16
15 14 13 12 11 10 9 8 7 6 5 4 3 2 1 16
3 4 5 6 7 8 9 10 11 12 13 14 15 16 1 2
13 12 11 10 9 8 7 6 5 4 3 2 1 16 15 14
5 6 7 8 9 10 11 12 13 14 15 16 1 2 3 4
11 10 9 8 7 6 5 4 3 2 1 16 15 14 13 12
7 8 9 10 11 12 13 14 15 16 1 2 3 4 5 6
9 8 7 6 5 4 3 2 1 16 15 14 13 12 11 10
9 10 11 12 13 14 15 16 1 2 3 4 5 6 7 8
7 6 5 4 3 2 1 16 15 14 13 12 11 10 9 8
11 12 13 14 15 16 1 2 3 4 5 6 7 8 9 10
5 4 3 2 1 16 15 14 13 12 11 10 9 8 7 6
13 14 15 16 1 2 3 4 5 6 7 8 9 10 11 12
3 2 1 16 15 14 13 12 11 10 9 8 7 6 5 4
15 16 1 2 3 4 5 6 7 8 9 10 11 12 13 14
1 16 15 14 13 12 11 10 9 8 7 6 5 4 3 2
1 2 3 4 5 6 7 8 9 10 11 12 13 14 15 16
15 14 13 12 11 10 9 8 7 6 5 4 3 2 1 16
3 4 5 6 7 8 9 10 11 12 13 14 15 16 1 2
13 12 11 10 9 8 7 6 5 4 3 2 1 16 15 14
5 6 7 8 9 10 11 12 13 14 15 16 1 2 3 4
11 10 9 8 7 6 5 4 3 2 1 16 15 14 13 12
7 8 9 10 11 12 13 14 15 16 1 2 3 4 5 6

10
ZHOVQSRPYocUmoz
dnN
HtK  lfmuKoVfdVa
iI
xMqHKPSPpKRzh
QvhocrNDmHQybOypBG
si VfmsWtimUurVEA
SuVNztHHS WZ
ieewwudCXc
oFdKqSMnIBf
1 2 3 4 5 6 7 8 9 10
9 8 7 6 5 4 3 2 1 10
3 4 5 6 7 8 9 10 1 2
7 6 5 4 3 2 1 10 9 8
5 6 7 8 9 10 1 2 3 4
5 4 3 2 1 10 9 8 7 6
7 8 9 10 1 2 3 4 5 6
3 2 1 10 9 8 7 6 5 4
9 10 1 2 3 4 5 6 7 8
1 10 9 8 7 6 5 4 3 2
1 2 3 4 5 6 7 8 9 10
9 8 7 6 5 4 3 2 1 10
3 4 5 6 7 8 9 10 1 2
7 6 5 4 3 2 1 10 9 8
5 6 7 8 9 10 1 2 3 4
5 4 3 2 1 10 9 8 7 6
7 8 9 10 1 2 3 4 5 6
3 2 1 10 9 8 7 6 5 4
9 10 1 2 3 4 5 6 7 8
1 10 9 8 7 6 5 4 3 2
1 2 3 4 5 6 7 8 9 10
9 8 7 6 5 4 3 2 1 10
3 4 5 6 7 8 9 10 1 2
7 6 5 4 3 2 1 10 9 8

7
aSgw
sDagIlb lbgIUXWJV
iCkxD
ikEFHESeAnYV
YNDySKWnHTINOxNtR
hnkDeFERJ
WmlPYWyCHBo
1 2 3 4 5 6 7
6 5 4 3 2 1 7
3 4 5 6 7 1 2
4 3 2 1 7 6 5
5 6 7 1 2 3 4
2 1 7 6 5 4 3
7 1 2 3 4 5 6
7 6 5 4 3 2 1
2 3 4 5 6 7 1
5 4 3 2 1 7 6
4 5 6 7 1 2 3
3 2 1 7 6 5 4
6 7 1 2 3 4 5
1 7 6 5 4 3 2
1 2 3 4 5 6 7
6 5 4 3 2 1 7
3 4 5 6 7 1 2
4 3 2 1 7 6 5
5 6 7 1 2 3 4
2 1 7 6 5 4 3
7 1 2 3 4 5 6
7 6 5 4 3 2 1
2 3 4 5 6 7 1
5 4 3 2 1 7 6
4 5 6 7 1 2 3
3 2 1 7 6 5 4
6 7 1 2 3 4 5

11
lBsSWiCnWpALPT
VOyjTVdBYXyfFeDC
KNzGpDMA DSRubaE
QDudlXNTnxLoNwIJf
elyshIAas
MXxgDKgGQgnTIlRPDV
yvJJOkhlOieifyS
ozkgvrlmAUdLLzdF
wKGI qg
FYFLEoZv
WvlDqgKIsnQvRQWdl
1 2 3 4 5 6 7 8 9 10 11
10 9 8 7 6 5 4 3 2 1 11
3 4 5 6 7 8 9 10 11 1 2
8 7 6 5 4 3 2 1 11 10 9
5 6 7 8 9 10 11 1 2 3 4
6 5 4 3 2 1 11 10 9 8 7
7 8 9 10 11 1 2 3 4 5 6
4 3 2 1 11 10 9 8 7 6 5
9 10 11 1 2 3 4 5 6 7 8
2 1 11 10 9 8 7 6 5 4 3
11 1 2 3 4 5 6 7 8 9 10
11 10 9 8 7 6 5 4 3 2 1
2 3 4 5 6 7 8 9 10 11 1
9 8 7 6 5 4 3 2 1 11 10
4 5 6 7 8 9 10 11 1 2 3
7 6 5 4 3 2 1 11 10 9 8
6 7 8 9 10 11 1 2 3 4 5
5 4 3 2 1 11 10 9 8 7 6
8 9 10 11 1 2 3 4 5 6 7
3 2 1 11 10 9 8 7 6 5 4
10 11 1 2 3 4 5 6 7 8 9
1 11 10 9 8 7 6 5 4 3 2
1 2 3 4 5 6 7 8 9 10 11
10 9 8 7 6 5 4 3 2 1 11
3 4 5 6 7 8 9 10 11 1 2
8 7 6 5 4 3 2 1 11 10 9
5 6 7 8 9 10 11 1 2 3 4
6 5 4 3 2 1 11 10 9 8 7
7 8 9 10 11 1 2 3 4 5 6
4 3 2 1 11 10 9 8 7 6 5
9 10 11 1 2 3 4 5 6 7 8
2 1 11 10 9 8 7 6 5 4 3
11 1 2 3 4 5 6 7 8 9 10
11 10 9 8 7 6 5 4 3 2 1
2 3 4 5 6 7 8 9 10 11 1
9 8 7 6 5 4 3 2 1 11 10
4 5 6 7 8 9 10 11 1 2 3

15
F vdrwsjjVrUsEYoha
CQTLSRo
IixKjLXN
yjfQriOUKRaRZQSxnv
KlVvBXC CEkwCNRsh
fJsHGSbSPbvORY
DyJmZUjMPfLtQuUZ
UsBZHWhKnckaxRfVOwiQ
EXXPTiZwgUGkEbxZzrQZ
vkNIZvHJy
itzQwrdwwhTDWvU
TqArDYRaBjbQsJcGx
OVbur
BM
HlgLQUK
1 2 3 4 5 6 7 8 9 10 11 12 13 14 15
14 13 12 11 10 9 8 7 6 5 4 3 2 1 15
3 4 5 6 7 8 9 10 11 12 13 14 15 1 2
12 11 10 9 8 7 6 5 4 3 2 1 15 14 13
5 6 7 8 9 10 11 12 13 14 15 1 2 3 4
10 9 8 7 6 5 4 3 2 1 15 14 13 12 11
7 8 9 10 11 12 13 14 15 1 2 3 4 5 6
8 7 6 5 4 3 2 1 15 14 13 12 11 10 9
9 10 11 12 13 14 15 1 2 3 4 5 6 7 8
6 5 4 3 2 1 15 14 13 12 11 10 9 8 7
11 12 13 14 15 1 2 3 4 5 6 7 8 9 10
4 3 2 1 15 14 13 12 11 10 9 8 7 6 5
13 14 15 1 2 3 4 5 6 7 8 9 10 11 12
2 1 15 14 13 12 11 10 9 8 7 6 5 4 3
15 1 2 3 4 5 6 7 8 9 10 11 12 13 14
15 14 13 12 11 10 9 8 7 6 5 4 3 2 1
2 3 4 5 6 7 8 9 10 11 12 13 14 15 1
13 12 11 10 9 8 7 6 5 4 3 2 1 15 14
4 5 6 7 8 9 10 11 12 13 14 15 1 2 3
11 10 9 8 7 6 5 4 3 2 1 15 14 13 12
6 7 8 9 10 11 12 13 14 15 1 2 3 4 5
9 8 7 6 5 4 3 2 1 15 14 13 12 11 10
8 9 10 11 12 13 14 15 1 2 3 4 5 6 7
7 6 5 4 3 2 1 15 14 13 12 11 10 9 8
10 11 12 13 14 15 1 2 3 4 5 6 7 8 9
5 4 3 2 1 15 14 13 12 11 10 9 8 7 6

12
R
rAQXXMkTRJ
hJK
lKvjRg
B pvEaFcCI
BAySEMyJqmIYuHiop
BCbzDux
Yz UiMkMz
JGqNac
OXm
vca
ZRrNJOlmeWs
1 2 3 4 5 6 7 8 9 10 11 12
11 10 9 8 7 6 5 4 3 2 1 12
3 4 5 6 7 8 9 10 11 12 1 2
9 8 7 6 5 4 3 2 1 12 11 10
5 6 7 8 9 10 11 12 1 2 3 4
7 6 5 4 3 2 1 12 11 10 9 8
7 8 9 10 11 12 1 2 3 4 5 6
5 4 3 2 1 12 11 10 9 8 7 6
9 10 11 12 1 2 3 4 5 6 7 8
3 2 1 12 11 10 9 8 7 6 5 4
11 12 1 2 3 4 5 6 7 8 9 10
1 12 11 10 9 8 7 6 5 4 3 2
1 2 3 4 5 6 7 8 9 10 11 12
11 10 9 8 7 6 5 4 3 2 1 12
3 4 5 6 7 8 9 10 11 12 1 2
9 8 7 6 5 4 3 2 1 12 11 10
5 6 7 8 9 10 11 12 1 2 3 4
7 6 5 4 3 2 1 12 11 10 9 8
7 8 9 10 11 12 1 2 3 4 5 6
5 4 3 2 1 12 11 10 9 8 7 6
9 10 11 12 1 2 3 4 5 6 7 8
3 2 1 12 11 10 9 8 7 6 5 4
11 12 1 2 3 4 5 6 7 8 9 10
1 12 11 10 9 8 7 6 5 4 3 2
1 2 3 4 5 6 7 8 9 10 11 12
11 10 9 8 7 6 5 4 3 2 1 12
3 4 5 6 7 8 9 10 11 12 1 2
9 8 7 6 5 4 3 2 1 12 11 10
5 6 7 8 9 10 11 12 1 2 3 4

11
tAcJGcWQDxcM
 CJOGZaENCRmzvCYL
ubvusPR
nKYfXhJfdFmvHPduXrk
aOfAtWtVHga
zHL
jxfuQVKQxt
nFMIkw
BLTSXmLI
WZ
hisk
1 2 3 4 5 6 7 8 9 10 11
10 9 8 7 6 5 4 3 2 1 11
3 4 5 6 7 8 9 10 11 1 2
8 7 6 5 4 3 2 1 11 10 9
5 6 7 8 9 10 11 1 2 3 4
6 5 4 3 2 1 11 10 9 8 7
7 8 9 10 11 1 2 3 4 5 6
4 3 2 1 11 10 9 8 7 6 5
9 10 11 1 2 3 4 5 6 7 8
2 1 11 10 9 8 7 6 5 4 3
11 1 2 3 4 5 6 7 8 9 10
11 10 9 8 7 6 5 4 3 2 1
2 3 4 5 6 7 8 9 10 11 1
9 8 7 6 5 4 3 2 1 11 10
4 5 6 7 8 9 10 11 1 2 3
7 6 5 4 3 2 1 11 10 9 8
6 7 8 9 10 11 1 2 3 4 5
5 4 3 2 1 11 10 9 8 7 6
8 9 10 11 1 2 3 4 5 6 7
3 2 1 11 10 9 8 7 6 5 4
10 11 1 2 3 4 5 6 7 8 9
1 11 10 9 8 7 6 5 4 3 2
1 2 3 4 5 6 7 8 9 10 11
10 9 8 7 6 5 4 3 2 1 11
3 4 5 6 7 8 9 10 11 1 2
8 7 6 5 4 3 2 1 11 10 9
5 6 7 8 9 10 11 1 2 3 4
6 5 4 3 2 1 11 10 9 8 7
7 8 9 10 11 1 2 3 4 5 6
4 3 2 1 11 10 9 8 7 6 5
9 10 11 1 2 3 4 5 6 7 8
2 1 11 10 9 8 7 6 5 4 3
11 1 2 3 4 5 6 7 8 9 10
11 10 9 8 7 6 5 4 3 2 1
2 3 4 5 6 7 8 9 10 11 1
9 8 7 6 5 4 3 2 1 11 10
4 5 6 7 8 9 10 11 1 2 3

15
eHqKmvjqCNpEpBW
nIgJNFP
gkJFMxImSK
oD
oImYw
KprQ
 kvNmWoecqgyTiEflJC
cTsc
hYOgEDaGyhBFTO
Ljm
D CuLSYCwOqtV
lgLMpVqmwB
Lu xaZm
syvczdvXJfFcL
ZabzkXoJhBxFLRFxuoMK
1 2 3 4 5 6 7 8 9 10 11 12 13 14 15
14 13 12 11 10 9 8 7 6 5 4 3 2 1 15
3 4 5 6 7 8 9 10 11 12 13 14 15 1 2
12 11 10 9 8 7 6 5 4 3 2 1 15 14 13
5 6 7 8 9 10 11 12 13 14 15 1 2 3 4
10 9 8 7 6 5 4 3 2 1 15 14 13 12 11
7 8 9 10 11 12 13 14 15 1 2 3 4 5 6
8 7 6 5 4 3 2 1 15 14 13 12 11 10 9
9 10 11 12 13 14 15 1 2 3 4 5 6 7 8
6 5 4 3 2 1 15 14 13 12 11 10 9 8 7
11 12 13 14 15 1 2 3 4 5 6 7 8 9 10
4 3 2 1 15 14 13 12 11 10 9 8 7 6 5
13 14 15 1 2 3 4 5 6 7 8 9 10 11 12
2 1 15 14 13 12 11 10 9 8 7 6 5 4 3
15 1 2 3 4 5 6 7 8 9 10 11 12 13 14
15 14 13 12 11 10 9 8 7 6 5 4 3 2 1
2 3 4 5 6 7 8 9 10 11 12 13 14 15 1
13 12 11 10 9 8 7 6 5 4 3 2 1 15 14
4 5 6 7 8 9 10 11 12 13 14 15 1 2 3
11 10 9 8 7 6 5 4 3 2 1 15 14 13 12
6 7 8 9 10 11 12 13 14 15 1 2 3 4 5
9 8 7 6 5 4 3 2 1 15 14 13 12 11 10
8 9 10 11 12 13 14 15 1 2 3 4 5 6 7
7 6 5 4 3 2 1 15 14 13 12 11 10 9 8
10 11 12 13 14 15 1 2 3 4 5 6 7 8 9
5 4 3 2 1 15 14 13 12 11 10 9 8 7 6

17
UreO
YohFdskMvr
nrYiEylTfiVuS
g
hatnTfiuofmIGoYN
idnMN
nHzVt
H
Cajyy
wISVrAn
PUUexqePMxaPZkEPsgp
MqEDbL
cgyFeQD
OmlkWMEsq
MUNl XgPhIPBjXWB
p
H
1 2 3 4 5 6 7 8 9 10 11 12 13 14 15 16 17
16 15 14 13 12 11 10 9 8 7 6 5 4 3 2 1 17
3 4 5 6 7 8 9 10 11 12 13 14 15 16 17 1 2
14 13 12 11 10 9 8 7 6 5 4 3 2 1 17 16 15
5 6 7 8 9 10 11 12 13 14 15 16 17 1 2 3 4
12 11 10 9 8 7 6 5 4 3 2 1 17 16 15 14 13
7 8 9 10 11 12 13 14 15 16 17 1 2 3 4 5 6
10 9 8 7 6 5 4 3 2 1 17 16 15 14 13 12 11
9 10 11 12 13 14 15 16 17 1 2 3 4 5 6 7 8
8 7 6 5 4 3 2 1 17 16 15 14 13 12 11 10 9
11 12 13 14 15 16 17 1 2 3 4 5 6 7 8 9 10
6 5 4 3 2 1 17 16 15 14 13 12 11 10 9 8 7
13 14 15 16 17 1 2 3 4 5 6 7 8 9 10 11 12
4 3 2 1 17 16 15 14 13 12 11 10 9 8 7 6 5
15 16 17 1 2 3 4 5 6 7 8 9 10 11 12 13 14
2 1 17 16 15 14 13 12 11 10 9 8 7 6 5 4 3
17 1 2 3 4 5 6 7 8 9 10 11 12 13 14 15 16
17 16 15 14 13 12 11 10 9 8 7 6 5 4 3 2 1
2 3 4 5 6 7 8 9 10 11 12 13 14 15 16 17 1
15 14 13 12 11 10 9 8 7 6 5 4 3 2 1 17 16
4 5 6 7 8 9 10 11 12 13 14 15 16 17 1 2 3
13 12 11 10 9 8 7 6 5 4 3 2 1 17 16 15 14
6 7 8 9 10 11 12 13 14 15 16 17 1 2 3 4 5
11 10 9 8 7 6 5 4 3 2 1 17 16 15 14 13 12
8 9 10 11 12 13 14 15 16 17 1 2 3 4 5 6 7
9 8 7 6 5 4 3 2 1 17 16 15 14 13 12 11 10
10 11 12 13 14 15 16 17 1 2 3 4 5 6 7 8 9
7 6 5 4 3 2 1 17 16 15 14 13 12 11 10 9 8
12 13 14 15 16 17 1 2 3 4 5 6 7 8 9 10 11
5 4 3 2 1 17 16 15 14 13 12 11 10 9 8 7 6
14 15 16 17 1 2 3 4 5 6 7 8 9 10 11 12 13

15
EQCPaEvxZjfDZDMoHbt
CJJ
Unk
ExCQOqHUeTqOQtNNKd
UfZMvsXoAZ
ocy HzkEsSTTQbO
JQPBzyq
VAntAiVvG
cGg
OfXLrx
c yRCrEIpiw
EFYoLekKAwJhOPmRXAV
OkgxIBcxfBojeLGwzHM
EGT m
Dq VOIeRf
1 2 3 4 5 6 7 8 9 10 11 12 13 14 15
14 13 12 11 10 9 8 7 6 5 4 3 2 1 15
3 4 5 6 7 8 9 10 11 12 13 14 15 1 2
12 11 10 9 8 7 6 5 4 3 2 1 15 14 13
5 6 7 8 9 10 11 12 13 14 15 1 2 3 4
10 9 8 7 6 5 4 3 2 1 15 14 13 12 11
7 8 9 10 11 12 13 14 15 1 2 3 4 5 6
8 7 6 5 4 3 2 1 15 14 13 12 11 10 9
9 10 11 12 13 14 15 1 2 3 4 5 6 7 8
6 5 4 3 2 1 15 14 13 12 11 10 9 8 7
11 12 13 14 15 1 2 3 4 5 6 7 8 9 10
4 3 2 1 15 14 13 12 11 10 9 8 7 6 5
13 14 15 1 2 3 4 5 6 7 8 9 10 11 12
2 1 15 14 13 12 11 10 9 8 7 6 5 4 3
15 1 2 3 4 5 6 7 8 9 10 11 12 13 14
15 14 13 12 11 10 9 8 7 6 5 4 3 2 1
2 3 4 5 6 7 8 9 10 11 12 13 14 15 1
13 12 11 10 9 8 7 6 5 4 3 2 1 15 14
4 5 6 7 8 9 10 11 12 13 14 15 1 2 3
11 10 9 8 7 6 5 4 3 2 1 15 14 13 12
6 7 8 9 10 11 12 13 14 15 1 2 3 4 5
9 8 7 6 5 4 3 2 1 15 14 13 12 11 10
8 9 10 11 12 13 14 15 1 2 3 4 5 6 7
7 6 5 4 3 2 1 15 14 13 12 11 10 9 8
10 11 12 13 14 15 1 2 3 4 5 6 7 8 9
5 4 3 2 1 15 14 13 12 11 10 9 8 7 6

19
yhEBbyGSE
fwQrIctTnYyJBuJ XY
WE
qkCAhFVhjteMElNL
ja
wstpCFDuuxpEIJbWL
cGOnPhLYwOIwHQjsrvza
DpLL
PUxihZYrQPNSs
FJkiAgmnJwaUvd
UoQjBLk qOnOLYria
Om
gyBz XDwxLr
LEwhwyzCCW
kCPkpQ
vdCIaQkCqCJjDXTc
azc
oFAHpCn QwqIrDerIpZ
EBQbn
1 2 3 4 5 6 7 8 9 10 11 12 13 14 15 16 17 18 19
18 17 16 15 14 13 12 11 10 9 8 7 6 5 4 3 2 1 19
3 4 5 6 7 8 9 10 11 12 13 14 15 16 17 18 19 1 2
16 15 14 13 12 11 10 9 8 7 6 5 4 3 2 1 19 18 17
5 6 7 8 9 10 11 12 13 14 15 16 17 18 19 1 2 3 4
14 13 12 11 10 9 8 7 6 5 4 3 2 1 19 18 17 16 15
7 8 9 10 11 12 13 14 15 16 17 18 19 1 2 3 4 5 6
12 11 10 9 8 7 6 5 4 3 2 1 19 18 17 16 15 14 13
9 10 11 12 13 14 15 16 17 18 19 1 2 3 4 5 6 7 8
10 9 8 7 6 5 4 3 2 1 19 18 17 16 15 14 13 12 11
11 12 13 14 15 16 17 18 19 1 2 3 4 5 6 7 8 9 10
8 7 6 5 4 3 2 1 19 18 17 16 15 14 13 12 11 10 9
13 14 15 16 17 18 19 1 2 3 4 5 6 7 8 9 10 11 12
6 5 4 3 2 1 19 18 17 16 15 14 13 12 11 10 9 8 7
15 16 17 18 19 1 2 3 4 5 6 7 8 9 10 11 12 13 14
4 3 2 1 19 18 17 16 15 14 13 12 11 10 9 8 7 6 5
17 18 19 1 2 3 4 5 6 7 8 9 10 11 12 13 14 15 16
2 1 19 18 17 16 15 14 13 12 11 10 9 8 7 6 5 4 3
19 1 2 3 4 5 6 7 8 9 10 11 12 13 14 15 16 17 18
19 18 17 16 15 14 13 12 11 10 9 8 7 6 5 4 3 2 1
2 3 4 5 6 7 8 9 10 11 12 13 14 15 16 17 18 19 1
17 16 15 14 13 12 11 10 9 8 7 6 5 4 3 2 1 19 18
4 5 6 7 8 9 10 11 12 13 14 15 16 17 18 19 1 2 3
15 14 13 12 11 10 9 8 7 6 5 4 3 2 1 19 18 17 16
6 7 8 9 10 11 12 13 14 15 16 17 18 19 1 2 3 4 5
13 12 11 10 9 8 7 6 5 4 3 2 1 19 18 17 16 15 14
8 9 10 11 12 13 14 15 16 17 18 19 1 2 3 4 5 6 7
11 10 9 8 7 6 5 4 3 2 1 19 18 17 16 15 14 13 12
10 11 12 13 14 15 16 17 18 19 1 2 3 4 5 6 7 8 9
9 8 7 6 5 4 3 2 1 19 18 17 16 15 14 13 12 11 10
12 13 14 15 16 17 18 19 1 2 3 4 5 6 7 8 9 10 11
7 6 5 4 3 2 1 19 18 17 16 15 14 13 12 11 10 9 8
14 15 16 17 18 19 1 2 3 4 5 6 7 8 9 10 11 12 13
5 4 3 2 1 19 18 17 16 15 14 13 12 11 10 9 8 7 6
16 17 18 19 1 2 3 4 5 6 7 8 9 10 11 12 13 14 15
3 2 1 19 18 17 16 15 14 13 12 11 10 9 8 7 6 5 4

20
mwTYTMgYdnveSIIjuEGw
g
z
UeDPeZvnUIKOveCXhVpu
HOTSxJfQshz
pIGVkNSEpqCVVRmDg
vGAO bJJgyNI
LgUdSjw ssrLXCsFmMp
XZw
qtXMTXqQvkY
uYEQIMhEIHLOqSrKnU
Ahrwh
vJQowsdqLIuwgWiItxJd
nt
awMvmu
eaBSzpnRODlGrRXtI
O
KDJwnVSoHze
AukgUQecKTynzTshqe
yjS
1 2 3 4 5 6 7 8 9 10 11 12 13 14 15 16 17 18 19 20
19 18 17 16 15 14 13 12 11 10 9 8 7 6 5 4 3 2 1 20
3 4 5 6 7 8 9 10 11 12 13 14 15 16 17 18 19 20 1 2
17 16 15 14 13 12 11 10 9 8 7 6 5 4 3 2 1 20 19 18
5 6 7 8 9 10 11 12 13 14 15 16 17 18 19 20 1 2 3 4
15 14 13 12 11 10 9 8 7 6 5 4 3 2 1 20 19 18 17 16
7 8 9 10 11 12 13 14 15 16 17 18 19 20 1 2 3 4 5 6
13 12 11 10 9 8 7 6 5 4 3 2 1 20 19 18 17 16 15 14
9 10 11 12 13 14 15 16 17 18 19 20 1 2 3 4 5 6 7 8
11 10 9 8 7 6 5 4 3 2 1 20 19 18 17 16 15 14 13 12
11 12 13 14 15 16 17 18 19 20 1 2 3 4 5 6 7 8 9 10
9 8 7 6 5 4 3 2 1 20 19 18 17 16 15 14 13 12 11 10
13 14 15 16 17 18 19 20 1 2 3 4 5 6 7 8 9 10 11 12
7 6 5 4 3 2 1 20 19 18 17 16 15 14 13 12 11 10 9 8
15 16 17 18 19 20 1 2 3 4 5 6 7 8 9 10 11 12 13 14
5 4 3 2 1 20 19 18 17 16 15 14 13 12 11 10 9 8 7 6
17 18 19 20 1 2 3 4 5 6 7 8 9 10 11 12 13 14 15 16
3 2 1 20 19 18 17 16 15 14 13 12 11 10 9 8 7 6 5 4
19 20 1 2 3 4 5 6 7 8 9 10 11 12 13 14 15 16 17 18
1 20 19 18 17 16 15 14 13 12 11 10 9 8 7 6 5 4 3 2
1 2 3 4 5 6 7 8 9 10 11 12 13 14 15 16 17 18 19 20
19 18 17 16 15 14 13 12 11 10 9 8 7 6 5 4 3 2 1 20
3 4 5 6 7 8 9 10 11 12 13 14 15 16 17 18 19 20 1 2
17 16 15 14 13 12 11 10 9 8 7 6 5 4 3 2 1 20 19 18
5 6 7 8 9 10 11 12 13 14 15 16 17 18 19 20 1 2 3 4
15 14 13 12 11 10 9 8 7 6 5 4 3 2 1 20 19 18 17 16
7 8 9 10 11 12 13 14 15 16 17 18 19 20 1 2 3 4 5 6
13 12 11 10 9 8 7 6 5 4 3 2 1 20 19 18 17 16 15 14

4
yQvUPhQzvFcXRENq
gpaDOlsJv
mGBgXbztRpn
FaF
1 2 3 4
3 2 1 4
3 4 1 2
1 4 3 2
1 2 3 4
3 2 1 4
3 4 1 2
1 4 3 2
1 2 3 4
3 2 1 4
3 4 1 2
1 4 3 2
1 2 3 4
3 2 1 4
3 4 1 2
1 4 3 2
1 2 3 4
3 2 1 4
3 4 1 2
1 4 3 2
1 2 3 4
3 2 1 4
3 4 1 2
1 4 3 2
1 2 3 4
3 2 1 4
3 4 1 2
1 4 3 2
1 2 3 4
3 2 1 4

11
DnPHvJBMZin 
YFuhzLubpZ
oPwbiWmsNN
HfcaGyzvwcDIqxuQeRoc
sTTPnzCFLvDjJjoryeBQ
hvfJioNe
KBnIhULbT
lHpTmWDFHQaRADVyznD
HXHTftpuHESiXTR 
LPpwgoSRGDEhcxTQT
dSbYxPIzAaFeHPFP
1 2 3 4 5 6 7 8 9 10 11
10 9 8 7 6 5 4 3 2 1 11
3 4 5 6 7 8 9 10 11 1 2
8 7 6 5 4 3 2 1 11 10 9
5 6 7 8 9 10 11 1 2 3 4
6 5 4 3 2 1 11 10 9 8 7
7 8 9 10 11 1 2 3 4 5 6
4 3 2 1 11 10 9 8 7 6 5
9 10 11 1 2 3 4 5 6 7 8
2 1 11 10 9 8 7 6 5 4 3
11 1 2 3 4 5 6 7 8 9 10
11 10 9 8 7 6 5 4 3 2 1
2 3 4 5 6 7 8 9 10 11 1
9 8 7 6 5 4 3 2 1 11 10
4 5 6 7 8 9 10 11 1 2 3
7 6 5 4 3 2 1 11 10 9 8
6 7 8 9 10 11 1 2 3 4 5
5 4 3 2 1 11 10 9 8 7 6
8 9 10 11 1 2 3 4 5 6 7
3 2 1 11 10 9 8 7 6 5 4
10 11 1 2 3 4 5 6 7 8 9
1 11 10 9 8 7 6 5 4 3 2
1 2 3 4 5 6 7 8 9 10 11
10 9 8 7 6 5 4 3 2 1 11
3 4 5 6 7 8 9 10 11 1 2
8 7 6 5 4 3 2 1 11 10 9
5 6 7 8 9 10 11 1 2 3 4
6 5 4 3 2 1 11 10 9 8 7
7 8 9 10 11 1 2 3 4 5 6
4 3 2 1 11 10 9 8 7 6 5
9 10 11 1 2 3 4 5 6 7 8
2 1 11 10 9 8 7 6 5 4 3
11 1 2 3 4 5 6 7 8 9 10
11 10 9 8 7 6 5 4 3 2 1
2 3 4 5 6 7 8 9 10 11 1
9 8 7 6 5 4 3 2 1 11 10
4 5 6 7 8 9 10 11 1 2 3
